Old,,,,,,New
11_Action_Process_1_phase3_P-Act_Net.csv,,,,,,11_Action_Process_phase3.csv
11_Action_Process_3_phase5_P-Act_Net.csv,,,,,,11_Action_Process_phase5.csv
11_Adversarial_(Hindrance)_Network_0_phase3_Hin_Net.csv,,,,,,11_Adversarial_phase3.csv
11_Adversarial_(Hindrance)_Network_1_phase6_Hin_Net.csv,,,,,,11_Adversarial_phase6.csv
11_Advice_Network_0_phase3_Adv_Net.csv,,,,,,11_Advice_phase3.csv
11_Advice_Network_1_phase6_Adv_Net.csv,,,,,,11_Advice_phase6.csv
11_Friendship_0_phase6_Friendship1.csv,,,,,,11_Friendship1.csv
11_Friendship_0_phase6_Friendship2.csv,,,,,,11_Friendship2.csv
11_Informal_Leadership_0_phase3_Info_Leader_Net.csv,,,,,,11_Informal_Leadership_phase3.csv
11_Informal_Leadership_1_phase5_Info_Leader_Net.csv,,,,,,11_Informal_Leadership_phase5.csv
11_Information_Sharing_Network_0_phase2_IS_Net1.csv,,,,,,11_Information_Sharing1_phase2.csv
11_Information_Sharing_Network_1_phase3_IS_Net1.csv,,,,,,11_Information_Sharing1_phase3.csv
11_Information_Sharing_Network_1_phase3_IS_Net2.csv,,,,,,11_Information_Sharing2_phase3.csv
11_Information_Sharing_Network_2_phase4_IS_Net1.csv,,,,,,11_Information_Sharing1_phase4.csv
11_Information_Sharing_Network_3_phase5_IS_Net1.csv,,,,,,11_Information_Sharing1_phase5.csv
11_Information_Sharing_Network_3_phase5_IS_Net2.csv,,,,,,11_Information_Sharing2_phase5.csv
11_Prosocial_Behavior_Network_0_phase3_Pro_Beh_Net1.csv,,,,,,11_Prosocial_Behavior_phase3.csv
11_Prosocial_Behavior_Network_1_phase5_Pro_Beh_Net1.csv,,,,,,11_Prosocial_Behavior_phase5.csv
11_Team_Satisfaction1_0_phase3_TeamSat1_Net1.csv,,,,,,11_Team_Satisfaction1_phase3.csv
11_Team_Satisfaction1_1_phase6_TeamSat1_Net1.csv,,,,,,11_Team_Satisfaction1_phase6.csv
11_Team_Satisfaction3_0_phase6_TeamSat3_Net1.csv,,,,,,11_Team_Liking_phase6.csv
11_Team_Satisfaction3_0_phase6_TeamSat3_Net2.csv,,,,,,11_Team_Frustration_phase6.csv
11_Team_Satisfaction3_0_phase6_TeamSat3_Net3.csv,,,,,,11_Team_Helping_phase6.csv
11_Team_Satisfaction3_0_phase6_TeamSat3_Net4.csv,,,,,,11_Team_Supporting_phase6.csv
11_Transactive_Memory_Systems_0_phase2_TMS1_Net1.csv,,,,,,11_TMS1_phase2.csv
11_Transactive_Memory_Systems_2_phase3_TMS1_Net.csv,,,,,,11_TMS1_phase3.csv
11_Transactive_Memory_Systems_2_phase3_TMS2_Net.csv,,,,,,11_TMS2_phase3.csv
11_Transactive_Memory_Systems_2_phase3_TMS3_Net.csv,,,,,,11_TMS3_phase3.csv
11_Transactive_Memory_Systems_2_phase3_TMS4_Net.csv,,,,,,11_TMS4_phase3.csv
11_Transactive_Memory_Systems_3_phase4_TMS1_Net1.csv,,,,,,11_TMS1_phase4.csv
11_Transactive_Memory_Systems_5_phase5_TMS1_Net1.csv,,,,,,11_TMS1_phase5.csv
11_Transactive_Memory_Systems_5_phase5_TMS2_Net2.csv,,,,,,11_TMS2_phase5.csv
11_Transactive_Memory_Systems_5_phase5_TMS3_Net3.csv,,,,,,11_TMS3_phase5.csv
11_Transactive_Memory_Systems_5_phase5_TMS4_Net4.csv,,,,,,11_TMS4_phase5.csv
11_Trust2_0_phase3_Trust2_Net.csv,,,,,,11_Trust_phase3.csv
11_Trust2_1_phase5_Trust2_Net.csv,,,,,,11_Trust_phase5.csv
12_Action_Process_1_phase3_P-Act_Net.csv,,,,,,
12_Action_Process_3_phase5_P-Act_Net.csv,,,,,,
12_Adversarial_(Hindrance)_Network_0_phase3_Hin_Net.csv,,,,,,
12_Adversarial_(Hindrance)_Network_1_phase6_Hin_Net.csv,,,,,,
12_Advice_Network_0_phase3_Adv_Net.csv,,,,,,
12_Advice_Network_1_phase6_Adv_Net.csv,,,,,,
12_Friendship_0_phase6_Friendship1.csv,,,,,,
12_Friendship_0_phase6_Friendship2.csv,,,,,,
12_Informal_Leadership_0_phase3_Info_Leader_Net.csv,,,,,,
12_Informal_Leadership_1_phase5_Info_Leader_Net.csv,,,,,,
12_Information_Sharing_Network_0_phase2_IS_Net1.csv,,,,,,
12_Information_Sharing_Network_1_phase3_IS_Net1.csv,,,,,,
12_Information_Sharing_Network_1_phase3_IS_Net2.csv,,,,,,
12_Information_Sharing_Network_2_phase4_IS_Net1.csv,,,,,,
12_Information_Sharing_Network_3_phase5_IS_Net1.csv,,,,,,
12_Information_Sharing_Network_3_phase5_IS_Net2.csv,,,,,,
12_Prosocial_Behavior_Network_0_phase3_Pro_Beh_Net1.csv,,,,,,
12_Prosocial_Behavior_Network_1_phase5_Pro_Beh_Net1.csv,,,,,,
12_Team_Satisfaction1_0_phase3_TeamSat1_Net1.csv,,,,,,
12_Team_Satisfaction1_1_phase6_TeamSat1_Net1.csv,,,,,,
12_Team_Satisfaction3_0_phase6_TeamSat3_Net1.csv,,,,,,
12_Team_Satisfaction3_0_phase6_TeamSat3_Net2.csv,,,,,,
12_Team_Satisfaction3_0_phase6_TeamSat3_Net3.csv,,,,,,
12_Team_Satisfaction3_0_phase6_TeamSat3_Net4.csv,,,,,,
12_Transactive_Memory_Systems_0_phase2_TMS1_Net1.csv,,,,,,
12_Transactive_Memory_Systems_2_phase3_TMS1_Net.csv,,,,,,
12_Transactive_Memory_Systems_2_phase3_TMS2_Net.csv,,,,,,
12_Transactive_Memory_Systems_2_phase3_TMS3_Net.csv,,,,,,
12_Transactive_Memory_Systems_2_phase3_TMS4_Net.csv,,,,,,
12_Transactive_Memory_Systems_3_phase4_TMS1_Net1.csv,,,,,,
12_Transactive_Memory_Systems_5_phase5_TMS1_Net1.csv,,,,,,
12_Transactive_Memory_Systems_5_phase5_TMS2_Net2.csv,,,,,,
12_Transactive_Memory_Systems_5_phase5_TMS3_Net3.csv,,,,,,
12_Transactive_Memory_Systems_5_phase5_TMS4_Net4.csv,,,,,,
12_Trust2_0_phase3_Trust2_Net.csv,,,,,,
12_Trust2_1_phase5_Trust2_Net.csv,,,,,,
13_Action_Process_1_phase3_P-Act_Net.csv,,,,,,
13_Action_Process_3_phase5_P-Act_Net.csv,,,,,,
13_Adversarial_(Hindrance)_Network_0_phase3_Hin_Net.csv,,,,,,
13_Adversarial_(Hindrance)_Network_1_phase6_Hin_Net.csv,,,,,,
13_Advice_Network_0_phase3_Adv_Net.csv,,,,,,
13_Advice_Network_1_phase6_Adv_Net.csv,,,,,,
13_Friendship_0_phase6_Friendship1.csv,,,,,,
13_Friendship_0_phase6_Friendship2.csv,,,,,,
13_Informal_Leadership_0_phase3_Info_Leader_Net.csv,,,,,,
13_Informal_Leadership_1_phase5_Info_Leader_Net.csv,,,,,,
13_Information_Sharing_Network_0_phase2_IS_Net1.csv,,,,,,
13_Information_Sharing_Network_1_phase3_IS_Net1.csv,,,,,,
13_Information_Sharing_Network_1_phase3_IS_Net2.csv,,,,,,
13_Information_Sharing_Network_2_phase4_IS_Net1.csv,,,,,,
13_Information_Sharing_Network_3_phase5_IS_Net1.csv,,,,,,
13_Information_Sharing_Network_3_phase5_IS_Net2.csv,,,,,,
13_Prosocial_Behavior_Network_0_phase3_Pro_Beh_Net1.csv,,,,,,
13_Prosocial_Behavior_Network_1_phase5_Pro_Beh_Net1.csv,,,,,,
13_Team_Satisfaction1_0_phase3_TeamSat1_Net1.csv,,,,,,
13_Team_Satisfaction1_1_phase6_TeamSat1_Net1.csv,,,,,,
13_Team_Satisfaction3_0_phase6_TeamSat3_Net1.csv,,,,,,
13_Team_Satisfaction3_0_phase6_TeamSat3_Net2.csv,,,,,,
13_Team_Satisfaction3_0_phase6_TeamSat3_Net3.csv,,,,,,
13_Team_Satisfaction3_0_phase6_TeamSat3_Net4.csv,,,,,,
13_Transactive_Memory_Systems_0_phase2_TMS1_Net1.csv,,,,,,
13_Transactive_Memory_Systems_2_phase3_TMS1_Net.csv,,,,,,
13_Transactive_Memory_Systems_2_phase3_TMS2_Net.csv,,,,,,
13_Transactive_Memory_Systems_2_phase3_TMS3_Net.csv,,,,,,
13_Transactive_Memory_Systems_2_phase3_TMS4_Net.csv,,,,,,
13_Transactive_Memory_Systems_3_phase4_TMS1_Net1.csv,,,,,,
13_Transactive_Memory_Systems_5_phase5_TMS1_Net1.csv,,,,,,
13_Transactive_Memory_Systems_5_phase5_TMS2_Net2.csv,,,,,,
13_Transactive_Memory_Systems_5_phase5_TMS3_Net3.csv,,,,,,
13_Transactive_Memory_Systems_5_phase5_TMS4_Net4.csv,,,,,,
13_Trust2_0_phase3_Trust2_Net.csv,,,,,,
13_Trust2_1_phase5_Trust2_Net.csv,,,,,,
14_Action_Process_1_phase3_P-Act_Net.csv,,,,,,
14_Action_Process_3_phase5_P-Act_Net.csv,,,,,,
14_Adversarial_(Hindrance)_Network_0_phase3_Hin_Net.csv,,,,,,
14_Adversarial_(Hindrance)_Network_1_phase6_Hin_Net.csv,,,,,,
14_Advice_Network_0_phase3_Adv_Net.csv,,,,,,
14_Advice_Network_1_phase6_Adv_Net.csv,,,,,,
14_Friendship_0_phase6_Friendship1.csv,,,,,,
14_Friendship_0_phase6_Friendship2.csv,,,,,,
14_Informal_Leadership_0_phase3_Info_Leader_Net.csv,,,,,,
14_Informal_Leadership_1_phase5_Info_Leader_Net.csv,,,,,,
14_Information_Sharing_Network_0_phase2_IS_Net1.csv,,,,,,
14_Information_Sharing_Network_1_phase3_IS_Net1.csv,,,,,,
14_Information_Sharing_Network_1_phase3_IS_Net2.csv,,,,,,
14_Information_Sharing_Network_2_phase4_IS_Net1.csv,,,,,,
14_Information_Sharing_Network_3_phase5_IS_Net1.csv,,,,,,
14_Information_Sharing_Network_3_phase5_IS_Net2.csv,,,,,,
14_Prosocial_Behavior_Network_0_phase3_Pro_Beh_Net1.csv,,,,,,
14_Prosocial_Behavior_Network_1_phase5_Pro_Beh_Net1.csv,,,,,,
14_Team_Satisfaction1_0_phase3_TeamSat1_Net1.csv,,,,,,
14_Team_Satisfaction1_1_phase6_TeamSat1_Net1.csv,,,,,,
14_Team_Satisfaction3_0_phase6_TeamSat3_Net1.csv,,,,,,
14_Team_Satisfaction3_0_phase6_TeamSat3_Net2.csv,,,,,,
14_Team_Satisfaction3_0_phase6_TeamSat3_Net3.csv,,,,,,
14_Team_Satisfaction3_0_phase6_TeamSat3_Net4.csv,,,,,,
14_Transactive_Memory_Systems_0_phase2_TMS1_Net1.csv,,,,,,
14_Transactive_Memory_Systems_2_phase3_TMS1_Net.csv,,,,,,
14_Transactive_Memory_Systems_2_phase3_TMS2_Net.csv,,,,,,
14_Transactive_Memory_Systems_2_phase3_TMS3_Net.csv,,,,,,
14_Transactive_Memory_Systems_2_phase3_TMS4_Net.csv,,,,,,
14_Transactive_Memory_Systems_3_phase4_TMS1_Net1.csv,,,,,,
14_Transactive_Memory_Systems_5_phase5_TMS1_Net1.csv,,,,,,
14_Transactive_Memory_Systems_5_phase5_TMS2_Net2.csv,,,,,,
14_Transactive_Memory_Systems_5_phase5_TMS3_Net3.csv,,,,,,
14_Transactive_Memory_Systems_5_phase5_TMS4_Net4.csv,,,,,,
14_Trust2_0_phase3_Trust2_Net.csv,,,,,,
14_Trust2_1_phase5_Trust2_Net.csv,,,,,,
15_Action_Process_1_phase3_P-Act_Net.csv,,,,,,
15_Action_Process_3_phase5_P-Act_Net.csv,,,,,,
15_Adversarial_(Hindrance)_Network_0_phase3_Hin_Net.csv,,,,,,
15_Adversarial_(Hindrance)_Network_1_phase6_Hin_Net.csv,,,,,,
15_Advice_Network_0_phase3_Adv_Net.csv,,,,,,
15_Advice_Network_1_phase6_Adv_Net.csv,,,,,,
15_Friendship_0_phase6_Friendship1.csv,,,,,,
15_Friendship_0_phase6_Friendship2.csv,,,,,,
15_Informal_Leadership_0_phase3_Info_Leader_Net.csv,,,,,,
15_Informal_Leadership_1_phase5_Info_Leader_Net.csv,,,,,,
15_Information_Sharing_Network_0_phase2_IS_Net1.csv,,,,,,
15_Information_Sharing_Network_1_phase3_IS_Net1.csv,,,,,,
15_Information_Sharing_Network_1_phase3_IS_Net2.csv,,,,,,
15_Information_Sharing_Network_2_phase4_IS_Net1.csv,,,,,,
15_Information_Sharing_Network_3_phase5_IS_Net1.csv,,,,,,
15_Information_Sharing_Network_3_phase5_IS_Net2.csv,,,,,,
15_Prosocial_Behavior_Network_0_phase3_Pro_Beh_Net1.csv,,,,,,
15_Prosocial_Behavior_Network_1_phase5_Pro_Beh_Net1.csv,,,,,,
15_Team_Satisfaction1_0_phase3_TeamSat1_Net1.csv,,,,,,
15_Team_Satisfaction1_1_phase6_TeamSat1_Net1.csv,,,,,,
15_Team_Satisfaction3_0_phase6_TeamSat3_Net1.csv,,,,,,
15_Team_Satisfaction3_0_phase6_TeamSat3_Net2.csv,,,,,,
15_Team_Satisfaction3_0_phase6_TeamSat3_Net3.csv,,,,,,
15_Team_Satisfaction3_0_phase6_TeamSat3_Net4.csv,,,,,,
15_Transactive_Memory_Systems_0_phase2_TMS1_Net1.csv,,,,,,
15_Transactive_Memory_Systems_2_phase3_TMS1_Net.csv,,,,,,
15_Transactive_Memory_Systems_2_phase3_TMS2_Net.csv,,,,,,
15_Transactive_Memory_Systems_2_phase3_TMS3_Net.csv,,,,,,
15_Transactive_Memory_Systems_2_phase3_TMS4_Net.csv,,,,,,
15_Transactive_Memory_Systems_3_phase4_TMS1_Net1.csv,,,,,,
15_Transactive_Memory_Systems_5_phase5_TMS1_Net1.csv,,,,,,
15_Transactive_Memory_Systems_5_phase5_TMS2_Net2.csv,,,,,,
15_Transactive_Memory_Systems_5_phase5_TMS3_Net3.csv,,,,,,
15_Transactive_Memory_Systems_5_phase5_TMS4_Net4.csv,,,,,,
15_Trust2_0_phase3_Trust2_Net.csv,,,,,,
15_Trust2_1_phase5_Trust2_Net.csv,,,,,,
16_Action_Process_1_phase3_P-Act_Net.csv,,,,,,
16_Action_Process_3_phase5_P-Act_Net.csv,,,,,,
16_Adversarial_(Hindrance)_Network_0_phase3_Hin_Net.csv,,,,,,
16_Adversarial_(Hindrance)_Network_1_phase6_Hin_Net.csv,,,,,,
16_Advice_Network_0_phase3_Adv_Net.csv,,,,,,
16_Advice_Network_1_phase6_Adv_Net.csv,,,,,,
16_Friendship_0_phase6_Friendship1.csv,,,,,,
16_Friendship_0_phase6_Friendship2.csv,,,,,,
16_Informal_Leadership_0_phase3_Info_Leader_Net.csv,,,,,,
16_Informal_Leadership_1_phase5_Info_Leader_Net.csv,,,,,,
16_Information_Sharing_Network_0_phase2_IS_Net1.csv,,,,,,
16_Information_Sharing_Network_1_phase3_IS_Net1.csv,,,,,,
16_Information_Sharing_Network_1_phase3_IS_Net2.csv,,,,,,
16_Information_Sharing_Network_2_phase4_IS_Net1.csv,,,,,,
16_Information_Sharing_Network_3_phase5_IS_Net1.csv,,,,,,
16_Information_Sharing_Network_3_phase5_IS_Net2.csv,,,,,,
16_Prosocial_Behavior_Network_0_phase3_Pro_Beh_Net1.csv,,,,,,
16_Prosocial_Behavior_Network_1_phase5_Pro_Beh_Net1.csv,,,,,,
16_Team_Satisfaction1_0_phase3_TeamSat1_Net1.csv,,,,,,
16_Team_Satisfaction1_1_phase6_TeamSat1_Net1.csv,,,,,,
16_Team_Satisfaction3_0_phase6_TeamSat3_Net1.csv,,,,,,
16_Team_Satisfaction3_0_phase6_TeamSat3_Net2.csv,,,,,,
16_Team_Satisfaction3_0_phase6_TeamSat3_Net3.csv,,,,,,
16_Team_Satisfaction3_0_phase6_TeamSat3_Net4.csv,,,,,,
16_Transactive_Memory_Systems_0_phase2_TMS1_Net1.csv,,,,,,
16_Transactive_Memory_Systems_2_phase3_TMS1_Net.csv,,,,,,
16_Transactive_Memory_Systems_2_phase3_TMS2_Net.csv,,,,,,
16_Transactive_Memory_Systems_2_phase3_TMS3_Net.csv,,,,,,
16_Transactive_Memory_Systems_2_phase3_TMS4_Net.csv,,,,,,
16_Transactive_Memory_Systems_3_phase4_TMS1_Net1.csv,,,,,,
16_Transactive_Memory_Systems_5_phase5_TMS1_Net1.csv,,,,,,
16_Transactive_Memory_Systems_5_phase5_TMS2_Net2.csv,,,,,,
16_Transactive_Memory_Systems_5_phase5_TMS3_Net3.csv,,,,,,
16_Transactive_Memory_Systems_5_phase5_TMS4_Net4.csv,,,,,,
16_Trust2_0_phase3_Trust2_Net.csv,,,,,,
16_Trust2_1_phase5_Trust2_Net.csv,,,,,,
17_Action_Process_1_phase3_P-Act_Net.csv,,,,,,
17_Action_Process_3_phase5_P-Act_Net.csv,,,,,,
17_Adversarial_(Hindrance)_Network_0_phase3_Hin_Net.csv,,,,,,
17_Adversarial_(Hindrance)_Network_1_phase6_Hin_Net.csv,,,,,,
17_Advice_Network_0_phase3_Adv_Net.csv,,,,,,
17_Advice_Network_1_phase6_Adv_Net.csv,,,,,,
17_Friendship_0_phase6_Friendship1.csv,,,,,,
17_Friendship_0_phase6_Friendship2.csv,,,,,,
17_Informal_Leadership_0_phase3_Info_Leader_Net.csv,,,,,,
17_Informal_Leadership_1_phase5_Info_Leader_Net.csv,,,,,,
17_Information_Sharing_Network_0_phase2_IS_Net1.csv,,,,,,
17_Information_Sharing_Network_1_phase3_IS_Net1.csv,,,,,,
17_Information_Sharing_Network_1_phase3_IS_Net2.csv,,,,,,
17_Information_Sharing_Network_2_phase4_IS_Net1.csv,,,,,,
17_Information_Sharing_Network_2_phase4_IS_Net2.csv,,,,,,
17_Information_Sharing_Network_3_phase5_IS_Net1.csv,,,,,,
17_Information_Sharing_Network_3_phase5_IS_Net2.csv,,,,,,
17_Prosocial_Behavior_Network_0_phase3_Pro_Beh_Net1.csv,,,,,,
17_Prosocial_Behavior_Network_1_phase5_Pro_Beh_Net1.csv,,,,,,
17_Team_Satisfaction1_0_phase3_TeamSat1_Net1.csv,,,,,,
17_Team_Satisfaction1_1_phase6_TeamSat1_Net1.csv,,,,,,
17_Team_Satisfaction3_0_phase6_TeamSat3_Net1.csv,,,,,,
17_Team_Satisfaction3_0_phase6_TeamSat3_Net2.csv,,,,,,
17_Team_Satisfaction3_0_phase6_TeamSat3_Net3.csv,,,,,,
17_Team_Satisfaction3_0_phase6_TeamSat3_Net4.csv,,,,,,
17_Transactive_Memory_Systems_0_phase2_TMS1_Net1.csv,,,,,,
17_Transactive_Memory_Systems_2_phase3_TMS1_Net.csv,,,,,,
17_Transactive_Memory_Systems_2_phase3_TMS2_Net.csv,,,,,,
17_Transactive_Memory_Systems_2_phase3_TMS3_Net.csv,,,,,,
17_Transactive_Memory_Systems_2_phase3_TMS4_Net.csv,,,,,,
17_Transactive_Memory_Systems_3_phase4_TMS1_Net1.csv,,,,,,
17_Transactive_Memory_Systems_3_phase4_TMS2_Net2.csv,,,,,,
17_Transactive_Memory_Systems_3_phase4_TMS3_Net3.csv,,,,,,
17_Transactive_Memory_Systems_3_phase4_TMS4_Net4.csv,,,,,,
17_Transactive_Memory_Systems_5_phase5_TMS1_Net1.csv,,,,,,
17_Transactive_Memory_Systems_5_phase5_TMS2_Net2.csv,,,,,,
17_Transactive_Memory_Systems_5_phase5_TMS3_Net3.csv,,,,,,
17_Transactive_Memory_Systems_5_phase5_TMS4_Net4.csv,,,,,,
17_Trust2_0_phase3_Trust2_Net.csv,,,,,,
17_Trust2_1_phase5_Trust2_Net.csv,,,,,,
18_Action_Process_1_phase3_P-Act_Net.csv,,,,,,
18_Action_Process_3_phase5_P-Act_Net.csv,,,,,,
18_Adversarial_(Hindrance)_Network_0_phase3_Hin_Net.csv,,,,,,
18_Adversarial_(Hindrance)_Network_1_phase6_Hin_Net.csv,,,,,,
18_Advice_Network_0_phase3_Adv_Net.csv,,,,,,
18_Advice_Network_1_phase6_Adv_Net.csv,,,,,,
18_Friendship_0_phase6_Friendship1.csv,,,,,,
18_Friendship_0_phase6_Friendship2.csv,,,,,,
18_Informal_Leadership_0_phase3_Info_Leader_Net.csv,,,,,,
18_Informal_Leadership_1_phase5_Info_Leader_Net.csv,,,,,,
18_Information_Sharing_Network_0_phase2_IS_Net1.csv,,,,,,
18_Information_Sharing_Network_1_phase3_IS_Net1.csv,,,,,,
18_Information_Sharing_Network_1_phase3_IS_Net2.csv,,,,,,
18_Information_Sharing_Network_2_phase4_IS_Net1.csv,,,,,,
18_Information_Sharing_Network_3_phase5_IS_Net1.csv,,,,,,
18_Information_Sharing_Network_3_phase5_IS_Net2.csv,,,,,,
18_Prosocial_Behavior_Network_0_phase3_Pro_Beh_Net1.csv,,,,,,
18_Prosocial_Behavior_Network_1_phase5_Pro_Beh_Net1.csv,,,,,,
18_Team_Satisfaction1_0_phase3_TeamSat1_Net1.csv,,,,,,
18_Team_Satisfaction1_1_phase6_TeamSat1_Net1.csv,,,,,,
18_Team_Satisfaction3_0_phase6_TeamSat3_Net1.csv,,,,,,
18_Team_Satisfaction3_0_phase6_TeamSat3_Net2.csv,,,,,,
18_Team_Satisfaction3_0_phase6_TeamSat3_Net3.csv,,,,,,
18_Team_Satisfaction3_0_phase6_TeamSat3_Net4.csv,,,,,,
18_Transactive_Memory_Systems_0_phase2_TMS1_Net1.csv,,,,,,
18_Transactive_Memory_Systems_2_phase3_TMS1_Net.csv,,,,,,
18_Transactive_Memory_Systems_2_phase3_TMS2_Net.csv,,,,,,
18_Transactive_Memory_Systems_2_phase3_TMS3_Net.csv,,,,,,
18_Transactive_Memory_Systems_2_phase3_TMS4_Net.csv,,,,,,
18_Transactive_Memory_Systems_3_phase4_TMS1_Net1.csv,,,,,,
18_Transactive_Memory_Systems_5_phase5_TMS1_Net1.csv,,,,,,
18_Transactive_Memory_Systems_5_phase5_TMS2_Net2.csv,,,,,,
18_Transactive_Memory_Systems_5_phase5_TMS3_Net3.csv,,,,,,
18_Transactive_Memory_Systems_5_phase5_TMS4_Net4.csv,,,,,,
18_Trust2_0_phase3_Trust2_Net.csv,,,,,,
18_Trust2_1_phase5_Trust2_Net.csv,,,,,,
19_Action_Process_1_phase3_P-Act_Net.csv,,,,,,
19_Action_Process_3_phase5_P-Act_Net.csv,,,,,,
19_Adversarial_(Hindrance)_Network_0_phase3_Hin_Net.csv,,,,,,
19_Adversarial_(Hindrance)_Network_1_phase6_Hin_Net.csv,,,,,,
19_Advice_Network_0_phase3_Adv_Net.csv,,,,,,
19_Advice_Network_1_phase6_Adv_Net.csv,,,,,,
19_Friendship_0_phase6_Friendship1.csv,,,,,,
19_Friendship_0_phase6_Friendship2.csv,,,,,,
19_Informal_Leadership_0_phase3_Info_Leader_Net.csv,,,,,,
19_Informal_Leadership_1_phase5_Info_Leader_Net.csv,,,,,,
19_Information_Sharing_Network_0_phase2_IS_Net1.csv,,,,,,
19_Information_Sharing_Network_1_phase3_IS_Net1.csv,,,,,,
19_Information_Sharing_Network_1_phase3_IS_Net2.csv,,,,,,
19_Information_Sharing_Network_2_phase4_IS_Net1.csv,,,,,,
19_Information_Sharing_Network_3_phase5_IS_Net1.csv,,,,,,
19_Information_Sharing_Network_3_phase5_IS_Net2.csv,,,,,,
19_Prosocial_Behavior_Network_0_phase3_Pro_Beh_Net1.csv,,,,,,
19_Prosocial_Behavior_Network_1_phase5_Pro_Beh_Net1.csv,,,,,,
19_Team_Satisfaction1_0_phase3_TeamSat1_Net1.csv,,,,,,
19_Team_Satisfaction1_1_phase6_TeamSat1_Net1.csv,,,,,,
19_Team_Satisfaction3_0_phase6_TeamSat3_Net1.csv,,,,,,
19_Team_Satisfaction3_0_phase6_TeamSat3_Net2.csv,,,,,,
19_Team_Satisfaction3_0_phase6_TeamSat3_Net3.csv,,,,,,
19_Team_Satisfaction3_0_phase6_TeamSat3_Net4.csv,,,,,,
19_Transactive_Memory_Systems_0_phase2_TMS1_Net1.csv,,,,,,
19_Transactive_Memory_Systems_2_phase3_TMS1_Net.csv,,,,,,
19_Transactive_Memory_Systems_2_phase3_TMS2_Net.csv,,,,,,
19_Transactive_Memory_Systems_2_phase3_TMS3_Net.csv,,,,,,
19_Transactive_Memory_Systems_2_phase3_TMS4_Net.csv,,,,,,
19_Transactive_Memory_Systems_3_phase4_TMS1_Net1.csv,,,,,,
19_Transactive_Memory_Systems_5_phase5_TMS1_Net1.csv,,,,,,
19_Transactive_Memory_Systems_5_phase5_TMS2_Net2.csv,,,,,,
19_Transactive_Memory_Systems_5_phase5_TMS3_Net3.csv,,,,,,
19_Transactive_Memory_Systems_5_phase5_TMS4_Net4.csv,,,,,,
19_Trust2_0_phase3_Trust2_Net.csv,,,,,,
19_Trust2_1_phase5_Trust2_Net.csv,,,,,,
20_Action_Process_1_phase3_P-Act_Net.csv,,,,,,
20_Action_Process_3_phase5_P-Act_Net.csv,,,,,,
20_Adversarial_(Hindrance)_Network_0_phase3_Hin_Net.csv,,,,,,
20_Adversarial_(Hindrance)_Network_1_phase6_Hin_Net.csv,,,,,,
20_Advice_Network_0_phase3_Adv_Net.csv,,,,,,
20_Advice_Network_1_phase6_Adv_Net.csv,,,,,,
20_Friendship_0_phase6_Friendship1.csv,,,,,,
20_Friendship_0_phase6_Friendship2.csv,,,,,,
20_Informal_Leadership_0_phase3_Info_Leader_Net.csv,,,,,,
20_Informal_Leadership_1_phase5_Info_Leader_Net.csv,,,,,,
20_Information_Sharing_Network_0_phase2_IS_Net1.csv,,,,,,
20_Information_Sharing_Network_1_phase3_IS_Net1.csv,,,,,,
20_Information_Sharing_Network_1_phase3_IS_Net2.csv,,,,,,
20_Information_Sharing_Network_2_phase4_IS_Net1.csv,,,,,,
20_Information_Sharing_Network_3_phase5_IS_Net1.csv,,,,,,
20_Information_Sharing_Network_3_phase5_IS_Net2.csv,,,,,,
20_Prosocial_Behavior_Network_0_phase3_Pro_Beh_Net1.csv,,,,,,
20_Prosocial_Behavior_Network_1_phase5_Pro_Beh_Net1.csv,,,,,,
20_Team_Satisfaction1_0_phase3_TeamSat1_Net1.csv,,,,,,
20_Team_Satisfaction1_1_phase6_TeamSat1_Net1.csv,,,,,,
20_Team_Satisfaction3_0_phase6_TeamSat3_Net1.csv,,,,,,
20_Team_Satisfaction3_0_phase6_TeamSat3_Net2.csv,,,,,,
20_Team_Satisfaction3_0_phase6_TeamSat3_Net3.csv,,,,,,
20_Team_Satisfaction3_0_phase6_TeamSat3_Net4.csv,,,,,,
20_Transactive_Memory_Systems_0_phase2_TMS1_Net1.csv,,,,,,
20_Transactive_Memory_Systems_2_phase3_TMS1_Net.csv,,,,,,
20_Transactive_Memory_Systems_2_phase3_TMS2_Net.csv,,,,,,
20_Transactive_Memory_Systems_2_phase3_TMS3_Net.csv,,,,,,
20_Transactive_Memory_Systems_2_phase3_TMS4_Net.csv,,,,,,
20_Transactive_Memory_Systems_3_phase4_TMS1_Net1.csv,,,,,,
20_Transactive_Memory_Systems_5_phase5_TMS1_Net1.csv,,,,,,
20_Transactive_Memory_Systems_5_phase5_TMS2_Net2.csv,,,,,,
20_Transactive_Memory_Systems_5_phase5_TMS3_Net3.csv,,,,,,
20_Transactive_Memory_Systems_5_phase5_TMS4_Net4.csv,,,,,,
20_Trust2_0_phase3_Trust2_Net.csv,,,,,,
20_Trust2_1_phase5_Trust2_Net.csv,,,,,,
21_Action_Process_1_phase3_P-Act_Net.csv,,,,,,
21_Action_Process_3_phase5_P-Act_Net.csv,,,,,,
21_Adversarial_(Hindrance)_Network_0_phase3_Hin_Net.csv,,,,,,
21_Adversarial_(Hindrance)_Network_1_phase6_Hin_Net.csv,,,,,,
21_Advice_Network_0_phase3_Adv_Net.csv,,,,,,
21_Advice_Network_1_phase6_Adv_Net.csv,,,,,,
21_Friendship_0_phase6_Friendship1.csv,,,,,,
21_Friendship_0_phase6_Friendship2.csv,,,,,,
21_Informal_Leadership_0_phase3_Info_Leader_Net.csv,,,,,,
21_Informal_Leadership_1_phase5_Info_Leader_Net.csv,,,,,,
21_Information_Sharing_Network_0_phase2_IS_Net1.csv,,,,,,
21_Information_Sharing_Network_1_phase3_IS_Net1.csv,,,,,,
21_Information_Sharing_Network_1_phase3_IS_Net2.csv,,,,,,
21_Information_Sharing_Network_2_phase4_IS_Net1.csv,,,,,,
21_Information_Sharing_Network_3_phase5_IS_Net1.csv,,,,,,
21_Information_Sharing_Network_3_phase5_IS_Net2.csv,,,,,,
21_Prosocial_Behavior_Network_0_phase3_Pro_Beh_Net1.csv,,,,,,
21_Prosocial_Behavior_Network_1_phase5_Pro_Beh_Net1.csv,,,,,,
21_Team_Satisfaction1_0_phase3_TeamSat1_Net1.csv,,,,,,
21_Team_Satisfaction1_1_phase6_TeamSat1_Net1.csv,,,,,,
21_Team_Satisfaction3_0_phase6_TeamSat3_Net1.csv,,,,,,
21_Team_Satisfaction3_0_phase6_TeamSat3_Net2.csv,,,,,,
21_Team_Satisfaction3_0_phase6_TeamSat3_Net3.csv,,,,,,
21_Team_Satisfaction3_0_phase6_TeamSat3_Net4.csv,,,,,,
21_Transactive_Memory_Systems_0_phase2_TMS1_Net1.csv,,,,,,
21_Transactive_Memory_Systems_2_phase3_TMS1_Net.csv,,,,,,
21_Transactive_Memory_Systems_2_phase3_TMS2_Net.csv,,,,,,
21_Transactive_Memory_Systems_2_phase3_TMS3_Net.csv,,,,,,
21_Transactive_Memory_Systems_2_phase3_TMS4_Net.csv,,,,,,
21_Transactive_Memory_Systems_3_phase4_TMS1_Net1.csv,,,,,,
21_Transactive_Memory_Systems_5_phase5_TMS1_Net1.csv,,,,,,
21_Transactive_Memory_Systems_5_phase5_TMS2_Net2.csv,,,,,,
21_Transactive_Memory_Systems_5_phase5_TMS3_Net3.csv,,,,,,
21_Transactive_Memory_Systems_5_phase5_TMS4_Net4.csv,,,,,,
21_Trust2_0_phase3_Trust2_Net.csv,,,,,,
21_Trust2_1_phase5_Trust2_Net.csv,,,,,,
22_Action_Process_1_phase3_P-Act_Net.csv,,,,,,
22_Action_Process_3_phase5_P-Act_Net.csv,,,,,,
22_Adversarial_(Hindrance)_Network_0_phase3_Hin_Net.csv,,,,,,
22_Adversarial_(Hindrance)_Network_1_phase6_Hin_Net.csv,,,,,,
22_Advice_Network_0_phase3_Adv_Net.csv,,,,,,
22_Advice_Network_1_phase6_Adv_Net.csv,,,,,,
22_Friendship_0_phase6_Friendship1.csv,,,,,,
22_Friendship_0_phase6_Friendship2.csv,,,,,,
22_Informal_Leadership_0_phase3_Info_Leader_Net.csv,,,,,,
22_Informal_Leadership_1_phase5_Info_Leader_Net.csv,,,,,,
22_Information_Sharing_Network_0_phase2_IS_Net1.csv,,,,,,
22_Information_Sharing_Network_1_phase3_IS_Net1.csv,,,,,,
22_Information_Sharing_Network_1_phase3_IS_Net2.csv,,,,,,
22_Information_Sharing_Network_2_phase4_IS_Net1.csv,,,,,,
22_Information_Sharing_Network_3_phase5_IS_Net1.csv,,,,,,
22_Information_Sharing_Network_3_phase5_IS_Net2.csv,,,,,,
22_Prosocial_Behavior_Network_0_phase3_Pro_Beh_Net1.csv,,,,,,
22_Prosocial_Behavior_Network_1_phase5_Pro_Beh_Net1.csv,,,,,,
22_Team_Satisfaction1_0_phase3_TeamSat1_Net1.csv,,,,,,
22_Team_Satisfaction1_1_phase6_TeamSat1_Net1.csv,,,,,,
22_Team_Satisfaction3_0_phase6_TeamSat3_Net1.csv,,,,,,
22_Team_Satisfaction3_0_phase6_TeamSat3_Net2.csv,,,,,,
22_Team_Satisfaction3_0_phase6_TeamSat3_Net3.csv,,,,,,
22_Team_Satisfaction3_0_phase6_TeamSat3_Net4.csv,,,,,,
22_Transactive_Memory_Systems_0_phase2_TMS1_Net1.csv,,,,,,
22_Transactive_Memory_Systems_2_phase3_TMS1_Net.csv,,,,,,
22_Transactive_Memory_Systems_2_phase3_TMS2_Net.csv,,,,,,
22_Transactive_Memory_Systems_2_phase3_TMS3_Net.csv,,,,,,
22_Transactive_Memory_Systems_2_phase3_TMS4_Net.csv,,,,,,
22_Transactive_Memory_Systems_3_phase4_TMS1_Net1.csv,,,,,,
22_Transactive_Memory_Systems_5_phase5_TMS1_Net1.csv,,,,,,
22_Transactive_Memory_Systems_5_phase5_TMS2_Net2.csv,,,,,,
22_Transactive_Memory_Systems_5_phase5_TMS3_Net3.csv,,,,,,
22_Transactive_Memory_Systems_5_phase5_TMS4_Net4.csv,,,,,,
22_Trust2_0_phase3_Trust2_Net.csv,,,,,,
22_Trust2_1_phase5_Trust2_Net.csv,,,,,,
23_Action_Process_1_phase3_P-Act_Net.csv,,,,,,
23_Action_Process_3_phase5_P-Act_Net.csv,,,,,,
23_Adversarial_(Hindrance)_Network_0_phase3_Hin_Net.csv,,,,,,
23_Adversarial_(Hindrance)_Network_1_phase6_Hin_Net.csv,,,,,,
23_Advice_Network_0_phase3_Adv_Net.csv,,,,,,
23_Advice_Network_1_phase6_Adv_Net.csv,,,,,,
23_Friendship_0_phase6_Friendship1.csv,,,,,,
23_Friendship_0_phase6_Friendship2.csv,,,,,,
23_Informal_Leadership_0_phase3_Info_Leader_Net.csv,,,,,,
23_Informal_Leadership_1_phase5_Info_Leader_Net.csv,,,,,,
23_Information_Sharing_Network_0_phase2_IS_Net1.csv,,,,,,
23_Information_Sharing_Network_1_phase3_IS_Net1.csv,,,,,,
23_Information_Sharing_Network_1_phase3_IS_Net2.csv,,,,,,
23_Information_Sharing_Network_2_phase4_IS_Net1.csv,,,,,,
23_Information_Sharing_Network_3_phase5_IS_Net1.csv,,,,,,
23_Prosocial_Behavior_Network_0_phase3_Pro_Beh_Net1.csv,,,,,,
23_Prosocial_Behavior_Network_1_phase5_Pro_Beh_Net1.csv,,,,,,
23_Team_Satisfaction1_0_phase3_TeamSat1_Net1.csv,,,,,,
23_Team_Satisfaction1_1_phase6_TeamSat1_Net1.csv,,,,,,
23_Team_Satisfaction3_0_phase6_TeamSat3_Net1.csv,,,,,,
23_Team_Satisfaction3_0_phase6_TeamSat3_Net2.csv,,,,,,
23_Team_Satisfaction3_0_phase6_TeamSat3_Net3.csv,,,,,,
23_Team_Satisfaction3_0_phase6_TeamSat3_Net4.csv,,,,,,
23_Transactive_Memory_Systems_0_phase2_TMS1_Net1.csv,,,,,,
23_Transactive_Memory_Systems_2_phase3_TMS1_Net.csv,,,,,,
23_Transactive_Memory_Systems_2_phase3_TMS2_Net.csv,,,,,,
23_Transactive_Memory_Systems_2_phase3_TMS3_Net.csv,,,,,,
23_Transactive_Memory_Systems_2_phase3_TMS4_Net.csv,,,,,,
23_Transactive_Memory_Systems_3_phase4_TMS1_Net1.csv,,,,,,
23_Transactive_Memory_Systems_5_phase5_TMS1_Net1.csv,,,,,,
23_Trust2_0_phase3_Trust2_Net.csv,,,,,,
23_Trust2_1_phase5_Trust2_Net.csv,,,,,,
24_Action_Process_1_phase3_P-Act_Net.csv,,,,,,
24_Action_Process_3_phase5_P-Act_Net.csv,,,,,,
24_Adversarial_(Hindrance)_Network_0_phase3_Hin_Net.csv,,,,,,
24_Adversarial_(Hindrance)_Network_1_phase6_Hin_Net.csv,,,,,,
24_Advice_Network_0_phase3_Adv_Net.csv,,,,,,
24_Advice_Network_1_phase6_Adv_Net.csv,,,,,,
24_Friendship_0_phase6_Friendship1.csv,,,,,,
24_Friendship_0_phase6_Friendship2.csv,,,,,,
24_Informal_Leadership_0_phase3_Info_Leader_Net.csv,,,,,,
24_Informal_Leadership_1_phase5_Info_Leader_Net.csv,,,,,,
24_Information_Sharing_Network_0_phase2_IS_Net1.csv,,,,,,
24_Information_Sharing_Network_1_phase3_IS_Net1.csv,,,,,,
24_Information_Sharing_Network_1_phase3_IS_Net2.csv,,,,,,
24_Information_Sharing_Network_2_phase4_IS_Net1.csv,,,,,,
24_Information_Sharing_Network_3_phase5_IS_Net1.csv,,,,,,
24_Information_Sharing_Network_3_phase5_IS_Net2.csv,,,,,,
24_Prosocial_Behavior_Network_0_phase3_Pro_Beh_Net1.csv,,,,,,
24_Prosocial_Behavior_Network_1_phase5_Pro_Beh_Net1.csv,,,,,,
24_Team_Satisfaction1_0_phase3_TeamSat1_Net1.csv,,,,,,
24_Team_Satisfaction1_1_phase6_TeamSat1_Net1.csv,,,,,,
24_Team_Satisfaction3_0_phase6_TeamSat3_Net1.csv,,,,,,
24_Team_Satisfaction3_0_phase6_TeamSat3_Net2.csv,,,,,,
24_Team_Satisfaction3_0_phase6_TeamSat3_Net3.csv,,,,,,
24_Team_Satisfaction3_0_phase6_TeamSat3_Net4.csv,,,,,,
24_Transactive_Memory_Systems_0_phase2_TMS1_Net1.csv,,,,,,
24_Transactive_Memory_Systems_2_phase3_TMS1_Net.csv,,,,,,
24_Transactive_Memory_Systems_2_phase3_TMS2_Net.csv,,,,,,
24_Transactive_Memory_Systems_2_phase3_TMS3_Net.csv,,,,,,
24_Transactive_Memory_Systems_2_phase3_TMS4_Net.csv,,,,,,
24_Transactive_Memory_Systems_3_phase4_TMS1_Net1.csv,,,,,,
24_Transactive_Memory_Systems_5_phase5_TMS1_Net1.csv,,,,,,
24_Transactive_Memory_Systems_5_phase5_TMS2_Net2.csv,,,,,,
24_Transactive_Memory_Systems_5_phase5_TMS3_Net3.csv,,,,,,
24_Transactive_Memory_Systems_5_phase5_TMS4_Net4.csv,,,,,,
24_Trust2_0_phase3_Trust2_Net.csv,,,,,,
24_Trust2_1_phase5_Trust2_Net.csv,,,,,,
25_Action_Process_1_phase3_P-Act_Net.csv,,,,,,
25_Action_Process_3_phase5_P-Act_Net.csv,,,,,,
25_Adversarial_(Hindrance)_Network_0_phase3_Hin_Net.csv,,,,,,
25_Adversarial_(Hindrance)_Network_1_phase6_Hin_Net.csv,,,,,,
25_Advice_Network_0_phase3_Adv_Net.csv,,,,,,
25_Advice_Network_1_phase6_Adv_Net.csv,,,,,,
25_Friendship_0_phase6_Friendship1.csv,,,,,,
25_Friendship_0_phase6_Friendship2.csv,,,,,,
25_Informal_Leadership_0_phase3_Info_Leader_Net.csv,,,,,,
25_Informal_Leadership_1_phase5_Info_Leader_Net.csv,,,,,,
25_Information_Sharing_Network_0_phase2_IS_Net1.csv,,,,,,
25_Information_Sharing_Network_1_phase3_IS_Net1.csv,,,,,,
25_Information_Sharing_Network_1_phase3_IS_Net2.csv,,,,,,
25_Information_Sharing_Network_2_phase4_IS_Net1.csv,,,,,,
25_Information_Sharing_Network_3_phase5_IS_Net1.csv,,,,,,
25_Information_Sharing_Network_3_phase5_IS_Net2.csv,,,,,,
25_Prosocial_Behavior_Network_0_phase3_Pro_Beh_Net1.csv,,,,,,
25_Prosocial_Behavior_Network_1_phase5_Pro_Beh_Net1.csv,,,,,,
25_Team_Satisfaction1_0_phase3_TeamSat1_Net1.csv,,,,,,
25_Team_Satisfaction1_1_phase6_TeamSat1_Net1.csv,,,,,,
25_Team_Satisfaction3_0_phase6_TeamSat3_Net1.csv,,,,,,
25_Team_Satisfaction3_0_phase6_TeamSat3_Net2.csv,,,,,,
25_Team_Satisfaction3_0_phase6_TeamSat3_Net3.csv,,,,,,
25_Team_Satisfaction3_0_phase6_TeamSat3_Net4.csv,,,,,,
25_Transactive_Memory_Systems_0_phase2_TMS1_Net1.csv,,,,,,
25_Transactive_Memory_Systems_2_phase3_TMS1_Net.csv,,,,,,
25_Transactive_Memory_Systems_2_phase3_TMS2_Net.csv,,,,,,
25_Transactive_Memory_Systems_2_phase3_TMS3_Net.csv,,,,,,
25_Transactive_Memory_Systems_2_phase3_TMS4_Net.csv,,,,,,
25_Transactive_Memory_Systems_3_phase4_TMS1_Net1.csv,,,,,,
25_Transactive_Memory_Systems_5_phase5_TMS1_Net1.csv,,,,,,
25_Transactive_Memory_Systems_5_phase5_TMS2_Net2.csv,,,,,,
25_Transactive_Memory_Systems_5_phase5_TMS3_Net3.csv,,,,,,
25_Transactive_Memory_Systems_5_phase5_TMS4_Net4.csv,,,,,,
25_Trust2_0_phase3_Trust2_Net.csv,,,,,,
25_Trust2_1_phase5_Trust2_Net.csv,,,,,,
26_Action_Process_1_phase3_P-Act_Net.csv,,,,,,
26_Action_Process_3_phase5_P-Act_Net.csv,,,,,,
26_Adversarial_(Hindrance)_Network_0_phase3_Hin_Net.csv,,,,,,
26_Adversarial_(Hindrance)_Network_1_phase6_Hin_Net.csv,,,,,,
26_Advice_Network_0_phase3_Adv_Net.csv,,,,,,
26_Advice_Network_1_phase6_Adv_Net.csv,,,,,,
26_Friendship_0_phase6_Friendship1.csv,,,,,,
26_Friendship_0_phase6_Friendship2.csv,,,,,,
26_Informal_Leadership_0_phase3_Info_Leader_Net.csv,,,,,,
26_Informal_Leadership_1_phase5_Info_Leader_Net.csv,,,,,,
26_Information_Sharing_Network_0_phase2_IS_Net1.csv,,,,,,
26_Information_Sharing_Network_1_phase3_IS_Net1.csv,,,,,,
26_Information_Sharing_Network_1_phase3_IS_Net2.csv,,,,,,
26_Information_Sharing_Network_2_phase4_IS_Net1.csv,,,,,,
26_Information_Sharing_Network_3_phase5_IS_Net1.csv,,,,,,
26_Information_Sharing_Network_3_phase5_IS_Net2.csv,,,,,,
26_Prosocial_Behavior_Network_0_phase3_Pro_Beh_Net1.csv,,,,,,
26_Prosocial_Behavior_Network_1_phase5_Pro_Beh_Net1.csv,,,,,,
26_Team_Satisfaction1_0_phase3_TeamSat1_Net1.csv,,,,,,
26_Team_Satisfaction1_1_phase6_TeamSat1_Net1.csv,,,,,,
26_Team_Satisfaction3_0_phase6_TeamSat3_Net1.csv,,,,,,
26_Team_Satisfaction3_0_phase6_TeamSat3_Net2.csv,,,,,,
26_Team_Satisfaction3_0_phase6_TeamSat3_Net3.csv,,,,,,
26_Team_Satisfaction3_0_phase6_TeamSat3_Net4.csv,,,,,,
26_Transactive_Memory_Systems_0_phase2_TMS1_Net1.csv,,,,,,
26_Transactive_Memory_Systems_2_phase3_TMS1_Net.csv,,,,,,
26_Transactive_Memory_Systems_2_phase3_TMS2_Net.csv,,,,,,
26_Transactive_Memory_Systems_2_phase3_TMS3_Net.csv,,,,,,
26_Transactive_Memory_Systems_2_phase3_TMS4_Net.csv,,,,,,
26_Transactive_Memory_Systems_3_phase4_TMS1_Net1.csv,,,,,,
26_Transactive_Memory_Systems_5_phase5_TMS1_Net1.csv,,,,,,
26_Transactive_Memory_Systems_5_phase5_TMS2_Net2.csv,,,,,,
26_Transactive_Memory_Systems_5_phase5_TMS3_Net3.csv,,,,,,
26_Transactive_Memory_Systems_5_phase5_TMS4_Net4.csv,,,,,,
26_Trust2_0_phase3_Trust2_Net.csv,,,,,,
26_Trust2_1_phase5_Trust2_Net.csv,,,,,,
27_Action_Process_1_phase3_P-Act_Net.csv,,,,,,
27_Action_Process_3_phase5_P-Act_Net.csv,,,,,,
27_Adversarial_(Hindrance)_Network_0_phase3_Hin_Net.csv,,,,,,
27_Adversarial_(Hindrance)_Network_1_phase6_Hin_Net.csv,,,,,,
27_Advice_Network_0_phase3_Adv_Net.csv,,,,,,
27_Advice_Network_1_phase6_Adv_Net.csv,,,,,,
27_Friendship_0_phase6_Friendship1.csv,,,,,,
27_Friendship_0_phase6_Friendship2.csv,,,,,,
27_Informal_Leadership_0_phase3_Info_Leader_Net.csv,,,,,,
27_Informal_Leadership_1_phase5_Info_Leader_Net.csv,,,,,,
27_Information_Sharing_Network_0_phase2_IS_Net1.csv,,,,,,
27_Information_Sharing_Network_1_phase3_IS_Net1.csv,,,,,,
27_Information_Sharing_Network_1_phase3_IS_Net2.csv,,,,,,
27_Information_Sharing_Network_2_phase4_IS_Net1.csv,,,,,,
27_Information_Sharing_Network_3_phase5_IS_Net1.csv,,,,,,
27_Information_Sharing_Network_3_phase5_IS_Net2.csv,,,,,,
27_Prosocial_Behavior_Network_0_phase3_Pro_Beh_Net1.csv,,,,,,
27_Prosocial_Behavior_Network_1_phase5_Pro_Beh_Net1.csv,,,,,,
27_Team_Satisfaction1_0_phase3_TeamSat1_Net1.csv,,,,,,
27_Team_Satisfaction1_1_phase6_TeamSat1_Net1.csv,,,,,,
27_Team_Satisfaction3_0_phase6_TeamSat3_Net1.csv,,,,,,
27_Team_Satisfaction3_0_phase6_TeamSat3_Net2.csv,,,,,,
27_Team_Satisfaction3_0_phase6_TeamSat3_Net3.csv,,,,,,
27_Team_Satisfaction3_0_phase6_TeamSat3_Net4.csv,,,,,,
27_Transactive_Memory_Systems_0_phase2_TMS1_Net1.csv,,,,,,
27_Transactive_Memory_Systems_2_phase3_TMS1_Net.csv,,,,,,
27_Transactive_Memory_Systems_2_phase3_TMS2_Net.csv,,,,,,
27_Transactive_Memory_Systems_2_phase3_TMS3_Net.csv,,,,,,
27_Transactive_Memory_Systems_2_phase3_TMS4_Net.csv,,,,,,
27_Transactive_Memory_Systems_3_phase4_TMS1_Net1.csv,,,,,,
27_Transactive_Memory_Systems_5_phase5_TMS1_Net1.csv,,,,,,
27_Transactive_Memory_Systems_5_phase5_TMS2_Net2.csv,,,,,,
27_Transactive_Memory_Systems_5_phase5_TMS3_Net3.csv,,,,,,
27_Transactive_Memory_Systems_5_phase5_TMS4_Net4.csv,,,,,,
27_Trust2_0_phase3_Trust2_Net.csv,,,,,,
27_Trust2_1_phase5_Trust2_Net.csv,,,,,,
28_Action_Process_1_phase3_P-Act_Net.csv,,,,,,
28_Action_Process_3_phase5_P-Act_Net.csv,,,,,,
28_Adversarial_(Hindrance)_Network_0_phase3_Hin_Net.csv,,,,,,
28_Adversarial_(Hindrance)_Network_1_phase6_Hin_Net.csv,,,,,,
28_Advice_Network_0_phase3_Adv_Net.csv,,,,,,
28_Advice_Network_1_phase6_Adv_Net.csv,,,,,,
28_Friendship_0_phase6_Friendship1.csv,,,,,,
28_Friendship_0_phase6_Friendship2.csv,,,,,,
28_Informal_Leadership_0_phase3_Info_Leader_Net.csv,,,,,,
28_Informal_Leadership_1_phase5_Info_Leader_Net.csv,,,,,,
28_Information_Sharing_Network_0_phase2_IS_Net1.csv,,,,,,
28_Information_Sharing_Network_1_phase3_IS_Net1.csv,,,,,,
28_Information_Sharing_Network_1_phase3_IS_Net2.csv,,,,,,
28_Information_Sharing_Network_2_phase4_IS_Net1.csv,,,,,,
28_Information_Sharing_Network_3_phase5_IS_Net1.csv,,,,,,
28_Information_Sharing_Network_3_phase5_IS_Net2.csv,,,,,,
28_Prosocial_Behavior_Network_0_phase3_Pro_Beh_Net1.csv,,,,,,
28_Prosocial_Behavior_Network_1_phase5_Pro_Beh_Net1.csv,,,,,,
28_Team_Satisfaction1_0_phase3_TeamSat1_Net1.csv,,,,,,
28_Team_Satisfaction1_1_phase6_TeamSat1_Net1.csv,,,,,,
28_Team_Satisfaction3_0_phase6_TeamSat3_Net1.csv,,,,,,
28_Team_Satisfaction3_0_phase6_TeamSat3_Net2.csv,,,,,,
28_Team_Satisfaction3_0_phase6_TeamSat3_Net3.csv,,,,,,
28_Team_Satisfaction3_0_phase6_TeamSat3_Net4.csv,,,,,,
28_Transactive_Memory_Systems_0_phase2_TMS1_Net1.csv,,,,,,
28_Transactive_Memory_Systems_2_phase3_TMS1_Net.csv,,,,,,
28_Transactive_Memory_Systems_2_phase3_TMS2_Net.csv,,,,,,
28_Transactive_Memory_Systems_2_phase3_TMS3_Net.csv,,,,,,
28_Transactive_Memory_Systems_2_phase3_TMS4_Net.csv,,,,,,
28_Transactive_Memory_Systems_3_phase4_TMS1_Net1.csv,,,,,,
28_Transactive_Memory_Systems_5_phase5_TMS1_Net1.csv,,,,,,
28_Transactive_Memory_Systems_5_phase5_TMS2_Net2.csv,,,,,,
28_Transactive_Memory_Systems_5_phase5_TMS3_Net3.csv,,,,,,
28_Transactive_Memory_Systems_5_phase5_TMS4_Net4.csv,,,,,,
28_Trust2_0_phase3_Trust2_Net.csv,,,,,,
28_Trust2_1_phase5_Trust2_Net.csv,,,,,,
