MTS Session,PR_Pro_Beh_1_T,PR_Pro_Beh_1_t,PR_Pro_Beh_2_T,PR_Pro_Beh_2_t,PR_Pro_Beh_3_T,PR_Pro_Beh_3_t,PS_Pro_Beh_1_T,PS_Pro_Beh_1_t,PS_Pro_Beh_2_T,PS_Pro_Beh_2_t,PS_Pro_Beh_3_T,PS_Pro_Beh_3_t,SR_Pro_Beh_1_T,SR_Pro_Beh_1_t,SR_Pro_Beh_2_T,SR_Pro_Beh_2_t,SR_Pro_Beh_3_T,SR_Pro_Beh_3_t,SS_Pro_Beh_1_T,SS_Pro_Beh_1_t,SS_Pro_Beh_2_T,SS_Pro_Beh_2_t,SS_Pro_Beh_3_T,SS_Pro_Beh_3_t
11-20120214-1730,1,2,3,3,2,2,2,2,3,3,3,3,2,2,3,3,2,2,3,3,3,3,3,3
12-20120215-1703,2,2,4,3,3,3,1,2,2,3,3,3,4,4,4,4,4,4,3,0,0,0,2,2
13-20120216-1722,2,2,3,3,3,3,3,3,3,3,3,3,2,3,2,2,2,2,2,2,3,3,2,3
14-20120221-1301,1,1,4,4,4,4,2,2,3,2,3,1,1,1,3,3,3,3,2,2,3,3,3,3
15-20120222-1340,1,1,3,3,2,3,1,1,3,3,1,1,2,2,3,3,2,2,2,3,2,3,3,3
16-20120222-1724,4,4,4,4,4,4,2,2,4,4,4,4,2,3,3,3,3,3,2,2,4,4,3,3
17-20120223-1321,1,1,2,3,2,2,2,2,3,3,3,4,4,1,4,3,4,2,3,3,2,3,3,3
18-20120223-1733,3,3,3,3,3,3,1,1,3,3,3,3,3,3,3,3,3,3,3,3,3,3,3,3
19-20120228-1324,3,3,2,2,3,3,3,3,3,3,3,3,2,2,2,2,2,3,4,4,4,4,3,3
20-20120229-1339,2,2,4,4,4,4,2,2,3,3,3,3,3,3,3,3,3,3,2,2,2,3,2,2
21-20120301-1330,2,2,3,3,2,2,0,0,3,3,2,2,1,1,3,3,3,3,2,2,2,2,2,2
22-20120301-1800,2,2,4,4,2,3,3,2,1,3,2,2,2,2,2,2,2,2,2,2,2,2,2,2
23-20120302-1335,3,3,3,3,3,3,3,3,3,3,3,3,3,3,3,3,3,3,4,4,4,4,4,4
24-20120402-1736,3,3,3,3,3,2,1,1,1,1,2,2,1,1,3,3,2,2,2,2,3,3,3,3
25-20120403-1800,2,2,2,2,2,2,1,3,2,2,2,2,0,0,3,3,2,2,1,1,3,3,3,3
26-20120406-1400,3,2,2,2,1,1,3,3,3,3,3,3,2,3,3,3,3,3,1,3,3,4,2,2
27-20120406-1707,0,0,1,1,2,2,1,1,1,1,3,3,1,1,1,1,1,1,2,2,2,3,2,2
28-20120410-1740,2,2,4,4,2,2,3,3,4,4,4,4,0,0,1,3,2,2,3,3,3,3,2,2
