MTS Session,PR_TMS_1,PR_TMS_10,PR_TMS_2,PR_TMS_3,PR_TMS_4,PR_TMS_5,PR_TMS_6,PR_TMS_7,PR_TMS_8,PR_TMS_9,PS_TMS_1,PS_TMS_10,PS_TMS_2,PS_TMS_3,PS_TMS_4,PS_TMS_5,PS_TMS_6,PS_TMS_7,PS_TMS_8,PS_TMS_9,SR_TMS_1,SR_TMS_10,SR_TMS_2,SR_TMS_3,SR_TMS_4,SR_TMS_5,SR_TMS_6,SR_TMS_7,SR_TMS_8,SR_TMS_9,SS_TMS_1,SS_TMS_10,SS_TMS_2,SS_TMS_3,SS_TMS_4,SS_TMS_5,SS_TMS_6,SS_TMS_7,SS_TMS_8,SS_TMS_9
11-20120214-1730,4,1,4,3,4,3,3,3,3,2,2,1,1,3,2,3,3,3,3,2,3,1,3,4,4,3,3,3,3,3,4,1,4,4,4,3,4,4,4,3
12-20120215-1703,1,2,3,4,4,3,3,3,3,1,3,1,3,4,3,2,2,3,4,1,4,1,4,2,4,4,4,4,4,3,4,1,0,4,4,0,3,3,3,2
13-20120216-1722,4,0,1,3,3,3,4,3,3,1,3,0,3,3,3,3,4,4,3,3,3,1,2,3,3,3,3,3,3,2,3,1,3,4,4,1,3,3,3,3
14-20120221-1301,4,0,4,2,4,3,4,4,4,1,2,1,1,4,0,3,3,3,3,2,3,2,3,3,4,1,3,3,3,1,3,1,4,3,3,3,3,3,3,3
15-20120222-1340,3,2,3,4,4,3,4,4,3,2,3,1,3,3,4,2,2,3,3,3,3,1,3,3,3,3,3,3,3,2,3,3,3,3,0,3,3,3,3,3
16-20120222-1724,3,0,1,3,3,4,4,3,3,2,4,2,4,4,4,4,3,4,4,4,3,0,4,4,4,3,4,4,4,0,3,0,3,4,4,3,4,4,4,1
17-20120223-1321,3,1,2,3,3,1,3,4,4,1,3,2,3,3,4,3,3,3,1,1,4,1,1,4,4,1,4,4,4,2,3,1,3,3,4,3,3,3,3,3
18-20120223-1733,3,1,3,3,4,3,3,4,4,1,4,1,3,3,4,4,4,3,3,3,4,1,4,4,4,3,4,4,4,3,3,1,3,3,3,3,3,3,3,1
19-20120228-1324,2,3,2,2,2,2,4,4,4,4,3,1,3,3,4,3,4,3,3,2,4,1,3,3,3,3,3,3,3,2,3,1,3,3,3,1,3,3,3,3
20-20120229-1339,4,0,4,4,4,4,3,4,4,1,2,2,3,4,3,3,3,3,4,3,3,1,3,3,4,2,3,3,3,3,3,2,3,3,3,2,3,3,3,2
21-20120301-1330,3,0,3,3,3,2,3,3,3,1,3,1,1,3,2,3,3,3,3,2,3,1,3,3,3,3,3,3,3,1,4,0,3,4,4,4,4,4,4,3
22-20120301-1800,4,1,3,4,4,1,3,2,3,2,3,2,3,3,4,3,3,4,2,3,3,1,2,3,3,3,4,3,3,2,3,1,3,2,3,2,3,3,3,1
23-20120302-1335,2,3,2,2,2,2,2,3,3,3,3,1,3,3,3,3,4,4,3,1,3,2,3,3,4,4,3,3,3,3,4,1,3,4,4,4,4,3,3,4
24-20120402-1736,3,1,1,3,3,2,3,3,4,3,3,0,1,4,4,2,4,4,4,4,3,1,3,3,3,1,3,3,3,3,3,1,3,3,4,2,3,4,4,2
25-20120403-1800,4,1,4,4,4,4,2,4,4,4,4,1,4,3,3,3,3,3,3,2,4,0,3,3,4,4,3,3,3,1,1,1,1,3,3,3,3,3,3,2
26-20120406-1400,3,3,3,3,2,3,3,3,3,2,3,1,3,3,3,3,3,4,3,2,3,1,2,3,3,2,3,3,3,2,3,2,3,4,2,4,4,4,4,0
27-20120406-1707,3,0,1,3,3,3,3,3,3,1,2,1,0,4,4,3,3,3,3,1,3,1,3,3,4,3,3,3,3,2,3,1,3,3,3,3,3,3,3,0
28-20120410-1740,4,0,0,4,4,3,3,3,3,3,4,0,3,4,4,4,4,4,4,3,3,1,3,3,3,3,3,3,3,1,3,1,3,4,4,3,3,3,3,4
