MTS Session,PR_Trust1_1_T,PR_Trust1_1_t,PR_Trust1_2_T,PR_Trust1_2_t,PR_Trust1_3_T,PR_Trust1_3_t,PR_Trust1_4_T,PR_Trust1_4_t,PR_Trust1_5_T,PR_Trust1_5_t,PR_Trust1_6_T,PR_Trust1_6_t,PS_Trust1_1_T,PS_Trust1_1_t,PS_Trust1_2_T,PS_Trust1_2_t,PS_Trust1_3_T,PS_Trust1_3_t,PS_Trust1_4_T,PS_Trust1_4_t,PS_Trust1_5_T,PS_Trust1_5_t,PS_Trust1_6_T,PS_Trust1_6_t,SR_Trust1_1_T,SR_Trust1_1_t,SR_Trust1_2_T,SR_Trust1_2_t,SR_Trust1_3_T,SR_Trust1_3_t,SR_Trust1_4_T,SR_Trust1_4_t,SR_Trust1_5_T,SR_Trust1_5_t,SR_Trust1_6_T,SR_Trust1_6_t,SS_Trust1_1_T,SS_Trust1_1_t,SS_Trust1_2_T,SS_Trust1_2_t,SS_Trust1_3_T,SS_Trust1_3_t,SS_Trust1_4_T,SS_Trust1_4_t,SS_Trust1_5_T,SS_Trust1_5_t,SS_Trust1_6_T,SS_Trust1_6_t
11-20120214-1730,4,4,3,3,2,4,2,3,2,3,2,3,3,3,2,3,2,3,1,1,2,3,3,3,3,3,3,3,3,3,3,3,3,3,3,3,3,4,3,4,3,4,3,4,2,4,3,4
12-20120215-1703,2,4,2,4,2,4,1,4,1,3,1,4,3,4,2,4,2,4,1,3,1,4,1,4,4,4,4,4,4,4,4,4,2,2,2,2,4,4,2,2,2,3,0,0,2,1,3,2
13-20120216-1722,3,3,3,3,2,3,2,2,3,4,3,3,3,3,3,3,3,3,3,3,2,3,3,3,3,3,2,3,3,3,2,3,3,3,2,3,4,4,4,4,3,4,2,2,4,4,4,4
14-20120221-1301,4,4,4,4,4,4,4,4,4,3,4,4,3,3,2,1,2,1,1,1,1,0,1,1,4,4,4,4,4,4,1,1,3,3,3,3,3,3,3,3,3,4,3,3,2,3,3,3
15-20120222-1340,3,3,3,4,3,3,4,4,2,2,2,3,4,4,3,3,3,3,2,2,3,3,3,3,3,3,2,3,3,3,1,3,3,3,3,3,3,3,3,3,3,3,2,3,3,3,3,3
16-20120222-1724,3,4,3,4,3,4,3,3,4,4,4,4,1,4,1,4,0,4,1,3,2,3,1,3,4,3,4,3,3,2,1,1,4,0,4,2,4,4,3,4,3,4,3,3,3,3,3,4
17-20120223-1321,3,3,2,3,2,4,2,3,1,3,2,3,2,3,2,3,2,4,2,4,2,4,2,4,4,4,2,4,2,4,4,4,4,4,4,4,2,3,2,2,2,3,2,2,2,2,2,2
18-20120223-1733,2,2,3,3,4,4,2,4,3,3,4,4,1,2,1,1,2,3,3,3,2,2,3,3,4,4,1,4,1,4,1,4,0,4,1,4,3,3,3,3,2,3,2,3,2,3,2,3
19-20120228-1324,3,3,3,3,3,3,3,3,3,3,3,3,4,4,3,3,3,3,3,3,3,3,3,3,3,3,3,3,3,3,3,3,3,3,3,3,4,4,4,4,4,4,2,3,4,4,4,4
20-20120229-1339,1,4,1,4,1,4,0,3,2,4,1,4,2,4,0,2,2,4,0,2,1,3,1,3,3,3,3,3,3,4,3,3,3,3,3,3,3,2,2,1,2,1,1,3,2,1,3,1
21-20120301-1330,4,4,4,4,4,4,4,4,4,4,4,4,3,3,3,3,3,3,1,1,3,3,2,2,4,4,3,3,3,3,3,3,3,3,3,3,4,4,4,4,4,4,2,2,3,3,4,4
22-20120301-1800,3,4,2,4,3,4,2,4,2,2,3,4,2,4,2,3,2,3,0,1,2,2,2,2,4,3,4,3,3,3,1,2,3,2,3,2,2,2,3,3,2,2,2,2,2,2,2,2
23-20120302-1335,4,4,4,4,4,4,4,4,4,4,4,4,4,4,4,4,4,4,4,4,4,4,4,4,3,3,4,4,2,2,2,2,4,4,3,3,4,4,4,4,4,4,3,4,4,4,4,4
24-20120402-1736,4,4,3,3,3,4,2,2,3,3,3,3,3,4,2,0,2,2,1,3,3,2,4,4,1,4,2,3,2,4,3,0,1,3,2,3,2,4,1,4,2,4,2,3,2,3,3,3
25-20120403-1800,4,4,4,4,4,4,4,4,4,4,4,4,3,4,3,4,2,4,2,4,2,4,2,4,3,3,3,3,3,4,3,3,4,3,4,3,2,3,3,3,3,3,2,2,3,3,2,3
26-20120406-1400,4,4,3,3,3,3,1,1,2,2,3,3,3,4,2,4,3,4,3,3,2,3,3,3,3,3,3,3,3,3,2,3,2,3,2,3,4,4,4,4,4,4,2,2,3,1,3,2
27-20120406-1707,3,3,3,3,3,3,1,2,2,2,2,2,4,4,3,4,2,3,2,2,3,3,3,3,2,2,1,2,1,2,0,0,1,2,1,2,4,4,2,4,1,3,0,0,1,4,1,2
28-20120410-1740,3,3,3,3,3,3,3,3,3,3,3,3,4,4,4,4,4,4,3,3,4,4,4,4,4,4,4,4,4,4,4,4,4,4,4,4,2,2,2,3,3,3,3,3,2,2,3,3
