AMODE|Move|02:20-7:22 PM
AMODE|Identify|04:10-7:24 PM
AMODE|Move|04:17-7:24 PM
AMODE|Identify|05:09-7:25 PM
AMODE|Move|05:22-7:25 PM
AMODE|Identify|05:38-7:25 PM
AMODE|Move|06:36-7:26 PM
SCELL|Active;39|08:12-7:28 PM
SCELL|Active;9|08:18-7:28 PM
SCELL|Active;19|08:33-7:28 PM
SCELL|Active;29|08:36-7:28 PM
MVSLF|A3|10:14-7:30 PM
SCELL|Active;39|10:38-7:30 PM
MVSLF|A4|10:42-7:30 PM
AMODE|Identify|10:58-7:30 PM
IDENT|A RPG Threat has been identified in map cell A4 at position 256, 376.|11:18-7:31 PM
IDENT|A Tent Target has been identified in map cell A4 at position 284, 304.|11:36-7:31 PM
SCELL|Active;7|13:39-7:33 PM
AMODE|Move|13:40-7:33 PM
MVSLF|C1|13:42-7:33 PM
AMODE|Identify|13:52-7:33 PM
IDENT|A AFV Threat has been identified in map cell C1 at position 138, 402.|14:05-7:33 PM
IDENT|A Civilian Target has been identified in map cell C1 at position 303, 208.|14:22-7:34 PM
