SESSN|25-20120403-1800;1,1|Start:4/3/2012-4:05 PM
INITZ|Hardware-Success|4/3/2012-4:05 PM
INITZ|Interface-Success|4/3/2012-4:05 PM
MEASR|1|4/3/2012-4:07 PM
TRAIN|Start|4/3/2012-6:09 PM
TRAIN|End|4/3/2012-7:08 PM
TRANS|1|Start:00:00-4/3/2012-7:09 PM
MEASR|2|4/3/2012-7:11 PM
TRANS|1|End:05:15-4/3/2012-7:14 PM
MISSN|1|Start:00:00-4/3/2012-7:24 PM
MEASR|3|4/3/2012-7:24 PM
MISSN|1|End:15:39-4/3/2012-7:39 PM
MISSN|2|Prepare:00:00-4/3/2012-7:53 PM
TRANS|2|Start:00:00-4/3/2012-8:00 PM
MEASR|4|4/3/2012-8:02 PM
TRANS|2|End:08:49-4/3/2012-8:09 PM
MISSN|2|Start:00:00-4/3/2012-8:13 PM
MEASR|5|4/3/2012-8:25 PM
MISSN|2|Pause:20:33-4/3/2012-8:33 PM
MISSN|2|Resume:20:33-4/3/2012-8:40 PM
MEASR|6|4/3/2012-8:40 PM
MISSN|2|End:41:29-4/3/2012-9:00 PM
SESSN|25-20120403-1800,1,1|End:4/3/2012-9:11 PM
