SESSN|18-20120223-1733;1,1|Start:2/23/2012-5:33 PM
INITZ|Hardware-Success|2/23/2012-5:33 PM
INITZ|Interface-Success|2/23/2012-5:33 PM
MEASR|1|2/23/2012-5:33 PM
TRAIN|Start|2/23/2012-6:14 PM
TRAIN|End|2/23/2012-7:00 PM
TRANS|1|Start:00:00-2/23/2012-7:00 PM
MEASR|2|2/23/2012-7:04 PM
TRANS|1|End:13:36-2/23/2012-7:13 PM
MISSN|1|Start:00:00-2/23/2012-7:14 PM
MISSN|1|End:17:47-2/23/2012-7:31 PM
MEASR|3|2/23/2012-7:31 PM
MISSN|2|Prepare:00:00-2/23/2012-7:45 PM
TRANS|2|Start:00:00-2/23/2012-7:49 PM
MEASR|4|2/23/2012-7:49 PM
REPRT|1|2/23/2012-7:49 PM
TRANS|2|End:09:27-2/23/2012-7:57 PM
MISSN|2|Start:00:00-2/23/2012-8:01 PM
MISSN|2|Pause:21:45-2/23/2012-8:23 PM
MEASR|5|2/23/2012-8:23 PM
MISSN|2|Resume:21:45-2/23/2012-8:27 PM
MISSN|2|End:43:45-2/23/2012-8:49 PM
MEASR|6|2/23/2012-8:49 PM
SESSN|18-20120223-1733,1,1|End:2/23/2012-8:54 PM
