SCELL|Active;19|01:08-7:20 PM
SCELL|Active;9|01:09-7:20 PM
SCELL|Active;39|01:19-7:21 PM
SCELL|Active;39|01:21-7:21 PM
SCELL|Active;39|01:21-7:21 PM
AMODE|Move|01:36-7:21 PM
AMODE|Identify|01:43-7:21 PM
SCELL|Active;29|02:35-7:22 PM
SCELL|Active;19|02:36-7:22 PM
SCELL|Active;9|02:36-7:22 PM
SCELL|Active;39|02:59-7:22 PM
AMODE|Convoy|03:04-7:22 PM
SCELL|Active;39|03:46-7:23 PM
SCELL|Active;39|03:47-7:23 PM
AMODE|Move|03:48-7:23 PM
MVSLF|A4|03:51-7:23 PM
AMODE|Identify|04:08-7:23 PM
IDENT|A RPG Threat has been identified in map cell A4 at position 256, 376.|04:33-7:24 PM
IDENT|A Tent Target has been identified in map cell A4 at position 284, 304.|04:50-7:24 PM
CICON|Target|05:28-7:25 PM
CICON|Threat|05:31-7:25 PM
CICON|Convoy|05:32-7:25 PM
CICON|Target|05:34-7:25 PM
SCELL|Active;9|05:35-7:25 PM
SCELL|Active;19|05:36-7:25 PM
SCELL|Active;29|05:38-7:25 PM
SCELL|Active;39|05:39-7:25 PM
SCELL|Active;19|05:46-7:25 PM
AMODE|Convoy|05:51-7:25 PM
CONVOY|A1~A2|05:54-7:26 PM
SCELL|Active;39|06:28-7:26 PM
SCELL|Active;29|06:29-7:26 PM
SCELL|Active;29|07:12-7:27 PM
SCELL|Active;29|07:12-7:27 PM
AMODE|Move|07:15-7:27 PM
MVSLF|A3|07:17-7:27 PM
CICON|Convoy|07:23-7:27 PM
SCELL|Active;39|07:29-7:27 PM
MVSLF|A4|07:35-7:27 PM
AMODE|Convoy|07:53-7:27 PM
SCELL|Active;35|08:09-7:27 PM
AMODE|Move|08:12-7:28 PM
MVSLF|E4|08:13-7:28 PM
AMODE|Identify|08:22-7:28 PM
IDENT|A Tire Fire Target has been identified in map cell E4 at position 64, 199.|08:40-7:28 PM
IDENT|A Radio Tower Target has been identified in map cell E4 at position 279, 123.|08:58-7:28 PM
SCELL|Active;39|09:28-7:29 PM
AMODE|Convoy|09:30-7:29 PM
CONVOY|A3~A4|09:34-7:29 PM
SCELL|Active;38|10:06-7:29 PM
SCELL|Active;37|10:09-7:29 PM
SCELL|Active;37|10:22-7:30 PM
SCELL|Active;27|10:23-7:30 PM
SCELL|Active;37|10:24-7:30 PM
AMODE|Move|10:25-7:30 PM
MVSLF|C4|10:26-7:30 PM
SCELL|Active;38|10:40-7:30 PM
AMODE|Convoy|10:43-7:30 PM
CONVOY|A4~B4|10:46-7:30 PM
CICON|Convoy|11:08-7:30 PM
SCELL|Active;37|11:10-7:31 PM
AMODE|Move|11:15-7:31 PM
AMODE|Convoy|11:18-7:31 PM
CONVOY|B4~C4|11:21-7:31 PM
SCELL|Active;27|11:42-7:31 PM
AMODE|Move|11:45-7:31 PM
MVSLF|C3|11:48-7:31 PM
SCELL|Active;27|11:56-7:31 PM
SCELL|Active;27|11:57-7:31 PM
AMODE|Convoy|11:59-7:31 PM
CONVOY|C4~C2|12:01-7:32 PM
SCELL|Active;17|12:24-7:32 PM
AMODE|Move|12:26-7:32 PM
MVSLF|C2|12:27-7:32 PM
AMODE|Identify|12:41-7:32 PM
IDENT|A Van Threat has been identified in map cell C2 at position 216, 131.|12:52-7:32 PM
IDENT|A Tire Fire Target has been identified in map cell C2 at position 93, 265.|13:14-7:33 PM
SCELL|Active;7|13:50-7:33 PM
SCELL|Active;7|14:01-7:33 PM
SCELL|Active;7|14:02-7:33 PM
AMODE|Move|14:03-7:33 PM
MVSLF|C1|14:04-7:33 PM
SCELL|Active;7|14:11-7:34 PM
SCELL|Active;7|14:12-7:34 PM
AMODE|Identify|14:14-7:34 PM
IDENT|A AFV Threat has been identified in map cell C1 at position 138, 402.|14:24-7:34 PM
SCELL|Active;7|14:28-7:34 PM
SCELL|Active;7|14:29-7:34 PM
AMODE|Convoy|14:31-7:34 PM
CONVOY|C2~C1|14:33-7:34 PM
SCELL|Active;6|15:32-7:35 PM
SCELL|Active;7|15:33-7:35 PM
SCELL|Active;6|15:34-7:35 PM
AMODE|Move|15:38-7:35 PM
MVSLF|D1|15:40-7:35 PM
SCELL|Active;5|15:48-7:35 PM
MVSLF|E1|15:54-7:35 PM
AMODE|Identify|15:58-7:35 PM
