SCELL|Active;9|02:37-7:27 PM
SCELL|Active;19|02:42-7:27 PM
SCELL|Active;39|02:46-7:27 PM
SCELL|Active;17|02:50-7:28 PM
AMODE|Identify|02:52-7:28 PM
IDENT|A Van Threat has been identified in map cell A1 at position 216, 131.|03:13-7:28 PM
SCELL|Active;18|03:27-7:28 PM
SCELL|Active;18|03:36-7:28 PM
IDENT|A Radio Tower Target has been identified in map cell A1 at position 118, 298.|03:54-7:29 PM
SCELL|Active;18|04:01-7:29 PM
SCELL|Active;17|04:04-7:29 PM
AMODE|Move|04:10-7:29 PM
SCELL|Active;18|04:44-7:29 PM
SCELL|Active;18|04:54-7:30 PM
AMODE|Identify|04:57-7:30 PM
SCELL|Active;18|05:11-7:30 PM
SCELL|Active;7|05:14-7:30 PM
SCELL|Active;18|05:16-7:30 PM
SCELL|Active;9|05:17-7:30 PM
SCELL|Active;16|06:28-7:31 PM
SCELL|Active;19|06:30-7:31 PM
SCELL|Active;19|06:46-7:31 PM
SCELL|Active;17|09:43-7:34 PM
SCELL|Active;17|09:46-7:34 PM
SCELL|Active;17|09:57-7:35 PM
SCELL|Active;38|10:45-7:35 PM
SCELL|Active;18|11:33-7:36 PM
SCELL|Active;18|11:36-7:36 PM
SCELL|Active;18|11:37-7:36 PM
SCELL|Active;18|11:56-7:37 PM
SCELL|Active;18|11:57-7:37 PM
AMODE|Move|12:01-7:37 PM
MVSLF|B2|12:09-7:37 PM
AMODE|Identify|12:16-7:37 PM
IDENT|1;Sedan;305,274|12:22-7:37 PM
IDENT|A Sedan Threat has been identified in map cell B2 at position 305, 274.|12:26-7:37 PM
IDENT|0;Radio Tower;176,175|12:32-7:37 PM
IDENT|A Radio Tower Target has been identified in map cell B2 at position 176, 175.|12:34-7:37 PM
SCELL|Active;8|13:07-7:38 PM
AMODE|Move|13:10-7:38 PM
MVSLF|B1|13:11-7:38 PM
SCELL|Active;17|13:52-7:39 PM
MVSLF|C2|13:55-7:39 PM
AMODE|Identify|14:09-7:39 PM
IDENT|0;Tire Fire;378,317|14:14-7:39 PM
IDENT|A Tire Fire Target has been identified in map cell C2 at position 378, 317.|14:17-7:39 PM
IDENT|0;Tire Fire;381,130|14:20-7:39 PM
IDENT|A Tire Fire Target has been identified in map cell C2 at position 381, 130.|14:21-7:39 PM
IDENT|1;Van;131,267|14:26-7:39 PM
IDENT|A Van Threat has been identified in map cell C2 at position 131, 267.|14:27-7:39 PM
