SESSN|19-20120228-1324;0,0|Start:2/28/2012-1:24 PM
INITZ|Hardware-Success|2/28/2012-1:24 PM
INITZ|Interface-Success|2/28/2012-1:24 PM
MEASR|1|2/28/2012-1:24 PM
TRAIN|Start|2/28/2012-2:18 PM
TRAIN|End|2/28/2012-3:05 PM
TRANS|1|Start:00:00-2/28/2012-3:06 PM
MEASR|2|2/28/2012-3:12 PM
TRANS|1|End:07:18-2/28/2012-3:13 PM
MISSN|1|Start:00:00-2/28/2012-3:22 PM
MEASR|3|2/28/2012-3:34 PM
MISSN|1|End:15:09-2/28/2012-3:37 PM
MISSN|2|Prepare:00:00-2/28/2012-3:47 PM
TRANS|2|Start:00:00-2/28/2012-3:53 PM
MEASR|4|2/28/2012-3:55 PM
REPRT|1|2/28/2012-3:55 PM
TRANS|2|End:07:01-2/28/2012-4:00 PM
MISSN|2|Start:00:00-2/28/2012-4:08 PM
MEASR|5|2/28/2012-4:16 PM
MISSN|2|Pause:20:34-2/28/2012-4:29 PM
MISSN|2|Resume:20:34-2/28/2012-4:35 PM
MEASR|6|2/28/2012-4:55 PM
MISSN|2|End:41:09-2/28/2012-4:55 PM
SESSN|19-20120228-1324,0,0|End:2/28/2012-5:08 PM
