AMODE|Move|00:59-8:23 PM
SCELL|Active;24|01:06-8:23 PM
MVSLF|F3|01:19-8:24 PM
SCELL|Active;31|02:08-8:24 PM
MVSLF|I4|02:14-8:25 PM
AMODE|Identify|02:25-8:25 PM
IDENT|A Tire Fire Target has been identified in map cell I4 at position 203, 282.|02:46-8:25 PM
SCELL|Active;39|03:40-8:26 PM
IDENT|A Tire Fire Target has been identified in map cell I4 at position 238, 305.|04:24-8:27 PM
SCELL|Active;62|04:47-8:27 PM
IDENT|A Radio Tower Target has been identified in map cell I4 at position 427, 295.|05:10-8:27 PM
SCELL|Active;27|05:25-8:28 PM
IDENT|A Barrel Threat has been identified in map cell I4 at position 247, 229.|05:42-8:28 PM
SCELL|Active;33|07:26-8:30 PM
IDENT|A Tire Fire Target has been identified in map cell I4 at position 62, 325.|07:48-8:30 PM
SCELL|Active;42|07:55-8:30 PM
SCELL|Active;52|07:56-8:30 PM
SCELL|Active;51|07:57-8:30 PM
SCELL|Active;41|07:57-8:30 PM
SCELL|Active;31|07:58-8:30 PM
SCELL|Active;32|07:59-8:30 PM
SCELL|Active;33|07:59-8:30 PM
SCELL|Active;35|08:24-8:31 PM
IDENT|A Radio Tower Target has been identified in map cell I4 at position 406, 129.|08:52-8:31 PM
SCELL|Active;5|09:19-8:32 PM
IDENT|A Tire Fire Target has been identified in map cell I4 at position 235, 82.|10:30-8:33 PM
SCELL|Active;27|10:40-8:33 PM
SCELL|Active;27|10:42-8:33 PM
SCELL|Active;27|10:43-8:33 PM
IDENT|A Tire Fire Target has been identified in map cell I4 at position 235, 82.|11:56-8:34 PM
IDENT|A Sedan Threat has been identified in map cell I4 at position 254, 213.|12:26-8:35 PM
IDENT|A Radio Tower Target has been identified in map cell I4 at position 420, 106.|12:41-8:35 PM
IDENT|A Radio Tower Target has been identified in map cell I4 at position 406, 1219.|12:57-8:35 PM
IDENT|A Radio Tower Target has been identified in map cell I4 at position 406, 129.|13:25-8:36 PM
IDENT|A Van Threat has been identified in map cell I4 at position 314, 180.|14:27-8:37 PM
AMODE|Move|15:13-8:38 PM
CICON|Convoy|16:03-8:38 PM
AMODE|Convoy|16:04-8:38 PM
CONVOY|A1~A4|16:09-8:39 PM
CONVOY|A4~A8|18:20-8:41 PM
SCELL|Active;89|21:05-8:50 PM
CONVOY|A8~A10|21:40-8:51 PM
SCELL|Active;77|25:11-8:54 PM
CONVOY|C10~C1|25:15-8:55 PM
CONVOY|C1~E2|29:15-8:59 PM
CONVOY|E2~E10|32:21-9:02 PM
CONVOY|E10~F5|34:12-9:04 PM
CONVOY|F5~F4|37:47-9:07 PM
CONVOY|F4~F3|39:41-9:09 PM
CONVOY|F3~G7|40:16-9:10 PM
