CICON|Convoy|01:48-7:34 PM
CICON|Convoy|01:49-7:34 PM
CICON|Self|01:50-7:34 PM
SCELL|Active;19|02:04-7:34 PM
AMODE|Identify|02:06-7:34 PM
IDENT|1;Van;183,233|04:11-7:36 PM
SCELL|Active;19|04:28-7:37 PM
SCELL|Active;19|04:29-7:37 PM
SCELL|Active;29|04:29-7:37 PM
SCELL|Active;19|04:30-7:37 PM
SCELL|Active;18|04:31-7:37 PM
SCELL|Active;9|04:31-7:37 PM
SCELL|Active;19|04:32-7:37 PM
SCELL|Active;29|04:32-7:37 PM
SCELL|Active;39|04:32-7:37 PM
IDENT|1;RPG;229,156|04:34-7:37 PM
IDENT|1;RPG;235,173|04:35-7:37 PM
CICON|Ally|05:50-7:38 PM
SCELL|Active;9|07:45-7:40 PM
SCELL|Active;9|07:46-7:40 PM
SCELL|Active;19|07:47-7:40 PM
SCELL|Active;9|07:47-7:40 PM
SCELL|Active;19|08:10-7:40 PM
SCELL|Active;29|08:35-7:41 PM
SCELL|Active;39|08:37-7:41 PM
SCELL|Active;39|08:37-7:41 PM
SCELL|Active;39|08:38-7:41 PM
SCELL|Active;39|08:38-7:41 PM
SCELL|Active;9|08:39-7:41 PM
CICON|Convoy|08:44-7:41 PM
SCELL|Active;29|08:48-7:41 PM
SCELL|Active;39|08:50-7:41 PM
SCELL|Active;29|08:52-7:41 PM
SCELL|Active;19|08:54-7:41 PM
SCELL|Active;29|08:55-7:41 PM
SCELL|Active;19|08:56-7:41 PM
SCELL|Active;39|08:57-7:41 PM
SCELL|Active;38|08:58-7:41 PM
SCELL|Active;28|08:58-7:41 PM
SCELL|Active;18|08:59-7:41 PM
CICON|Convoy|09:00-7:41 PM
AMODE|Move|09:06-7:41 PM
SCELL|Active;29|09:20-7:42 PM
MVSLF|A3|09:24-7:42 PM
SCELL|Active;17|13:15-7:46 PM
AMODE|Identify|13:18-7:46 PM
IDENT|A Tire Fire Target has been identified in map cell A3 at position 235, 173.|13:24-7:46 PM
AMODE|Move|13:55-7:46 PM
SCELL|Active;39|13:59-7:46 PM
AMODE|Identify|14:01-7:46 PM
AMODE|Move|14:05-7:46 PM
MVSLF|A4|14:06-7:46 PM
CICON|Convoy|14:31-7:47 PM
SCELL|Active;39|14:41-7:47 PM
SCELL|Active;39|14:44-7:47 PM
CICON|Convoy|14:46-7:47 PM
SCELL|Active;39|14:47-7:47 PM
SCELL|Active;39|14:48-7:47 PM
SCELL|Active;39|14:52-7:47 PM
SCELL|Active;39|15:28-7:48 PM
AMODE|Identify|15:45-7:48 PM
