SESSN|23-20120302-1335;0,1|Start:3/2/2012-1:35 PM
INITZ|Hardware-Success|3/2/2012-1:35 PM
INITZ|Interface-Success|3/2/2012-1:35 PM
MEASR|1|3/2/2012-1:35 PM
TRAIN|Start|3/2/2012-2:11 PM
TRAIN|End|3/2/2012-3:02 PM
TRANS|1|Start:00:00-3/2/2012-3:03 PM
MEASR|2|3/2/2012-3:05 PM
TRANS|1|End:05:03-3/2/2012-3:08 PM
MISSN|1|Start:00:00-3/2/2012-3:17 PM
MEASR|3|3/2/2012-3:18 PM
MISSN|1|End:15:50-3/2/2012-3:32 PM
MISSN|2|Prepare:00:00-3/2/2012-3:41 PM
TRANS|2|Start:00:00-3/2/2012-3:46 PM
MEASR|4|3/2/2012-3:47 PM
REPRT|1|3/2/2012-3:47 PM
TRANS|2|End:07:34-3/2/2012-3:53 PM
MISSN|2|Start:00:00-3/2/2012-3:59 PM
MISSN|2|Pause:21:06-3/2/2012-4:19 PM
MEASR|5|3/2/2012-4:21 PM
MISSN|2|Resume:21:06-3/2/2012-4:27 PM
MEASR|6|3/2/2012-4:27 PM
MISSN|2|End:41:40-3/2/2012-4:47 PM
SESSN|23-20120302-1335,0,1|End:3/2/2012-4:59 PM
