SCELL|Active;39|00:51-3:17 PM
AMODE|Identify|01:01-3:17 PM
SCELL|Active;17|01:22-3:18 PM
SCELL|Active;17|02:06-3:18 PM
SCELL|Active;17|02:07-3:19 PM
SCELL|Active;17|02:13-3:19 PM
SCELL|Active;17|02:14-3:19 PM
AMODE|Move|02:16-3:19 PM
MVSLF|C2|02:19-3:19 PM
AMODE|Identify|02:47-3:19 PM
IDENT|A Tire Fire Target has been identified in map cell C2 at position 93, 265.|02:58-3:19 PM
SCELL|Active;17|03:07-3:20 PM
SCELL|Active;17|03:08-3:20 PM
SCELL|Active;17|03:13-3:20 PM
IDENT|A Van Threat has been identified in map cell C2 at position 216, 131.|03:25-3:20 PM
SCELL|Active;7|03:39-3:20 PM
SCELL|Active;18|03:45-3:20 PM
AMODE|Move|03:46-3:20 PM
MVSLF|B2|03:47-3:20 PM
AMODE|Identify|03:58-3:20 PM
IDENT|A Sedan Threat has been identified in map cell B2 at position 411, 215.|04:11-3:21 PM
IDENT|A Radio Tower Target has been identified in map cell B2 at position 118, 298.|04:31-3:21 PM
SCELL|Active;17|04:46-3:21 PM
AMODE|Move|04:48-3:21 PM
MVSLF|C2|04:50-3:21 PM
AMODE|Identify|05:24-3:22 PM
IDENT|A Tire Fire Target has been identified in map cell C2 at position 430, 272.|05:33-3:22 PM
SCELL|Active;5|05:43-3:22 PM
AMODE|Move|05:44-3:22 PM
MVSLF|E1|05:45-3:22 PM
AMODE|Identify|06:44-3:23 PM
IDENT|A Radio Tower Target has been identified in map cell E1 at position 373, 369.|07:14-3:24 PM
IDENT|A Tire Fire Target has been identified in map cell E1 at position 232, 234.|07:31-3:24 PM
SCELL|Active;35|07:51-3:24 PM
AMODE|Move|07:52-3:24 PM
MVSLF|E4|07:53-3:24 PM
AMODE|Identify|08:26-3:25 PM
IDENT|A Sedan Threat has been identified in map cell E4 at position 202, 252.|08:39-3:25 PM
SCELL|Active;37|09:18-3:26 PM
SCELL|Active;39|11:27-3:28 PM
IDENT|A Tire Fire Target has been identified in map cell E4 at position 239, 431.|12:29-3:29 PM
SCELL|Active;37|12:41-3:29 PM
SCELL|Active;27|12:42-3:29 PM
SCELL|Active;17|12:42-3:29 PM
SCELL|Active;7|12:43-3:29 PM
SCELL|Active;27|12:45-3:29 PM
SCELL|Active;37|12:45-3:29 PM
SCELL|Active;17|12:47-3:29 PM
SCELL|Active;37|12:48-3:29 PM
SCELL|Active;27|12:49-3:29 PM
SCELL|Active;17|12:49-3:29 PM
SCELL|Active;38|12:51-3:29 PM
SCELL|Active;39|12:52-3:29 PM
SCELL|Active;38|12:52-3:29 PM
SCELL|Active;39|12:53-3:29 PM
SCELL|Active;9|12:55-3:29 PM
SCELL|Active;18|12:55-3:29 PM
SCELL|Active;17|12:57-3:29 PM
SCELL|Active;17|13:15-3:30 PM
SCELL|Active;17|13:16-3:30 PM
AMODE|Move|13:19-3:30 PM
MVSLF|C2|13:20-3:30 PM
AMODE|Engage|13:43-3:30 PM
SCELL|Active;5|15:23-3:32 PM
SCELL|Active;5|15:39-3:32 PM
SCELL|Active;5|15:41-3:32 PM
AMODE|Move|15:43-3:32 PM
MVSLF|E1|15:44-3:32 PM
