AMODE|Move|00:56-3:20 PM
AMODE|Identify|02:01-3:21 PM
AMODE|Move|02:01-3:21 PM
SCELL|Active;39|02:06-3:21 PM
SCELL|Active;39|02:07-3:21 PM
SCELL|Active;39|02:07-3:21 PM
MVSLF|A4|02:10-3:21 PM
AMODE|Identify|02:16-3:21 PM
IDENT|A Tent Target has been identified in map cell A4 at position 284, 304.|02:40-3:22 PM
IDENT|A RPG Threat has been identified in map cell A4 at position 179, 332.|03:23-3:23 PM
AMODE|Move|03:52-3:23 PM
SCELL|Active;18|03:57-3:23 PM
SCELL|Active;34|04:20-3:24 PM
SCELL|Active;18|04:22-3:24 PM
MVSLF|B2|04:28-3:24 PM
SCELL|Active;6|06:05-3:25 PM
SCELL|Active;36|06:19-3:26 PM
MVSLF|D4|06:42-3:26 PM
AMODE|Identify|06:50-3:26 PM
IDENT|A AFV Threat has been identified in map cell D4 at position 282, 427.|07:57-3:27 PM
IDENT|A Civilian Target has been identified in map cell D4 at position 176, 155.|08:40-3:28 PM
IDENT|A RPG Threat has been identified in map cell D4 at position 179, 332.|08:54-3:28 PM
AMODE|Move|09:50-3:29 PM
SCELL|Active;7|10:02-3:29 PM
MVSLF|C1|10:30-3:30 PM
SCELL|Active;38|12:53-3:32 PM
SCELL|Active;39|12:58-3:32 PM
SCELL|Active;38|13:02-3:32 PM
SCELL|Active;28|13:14-3:32 PM
SCELL|Active;38|13:15-3:32 PM
SCELL|Active;7|13:43-3:33 PM
SCELL|Active;7|13:49-3:33 PM
SCELL|Active;7|13:50-3:33 PM
SCELL|Active;37|13:56-3:33 PM
SCELL|Active;27|13:57-3:33 PM
SCELL|Active;17|13:57-3:33 PM
SCELL|Active;7|13:58-3:33 PM
SCELL|Active;17|14:27-3:34 PM
SCELL|Active;7|14:29-3:34 PM
SCELL|Active;17|14:29-3:34 PM
SCELL|Active;17|14:30-3:34 PM
SCELL|Active;17|14:30-3:34 PM
CICON|Ally|14:32-3:34 PM
SCELL|Active;5|15:00-3:34 PM
CICON|Convoy|15:08-3:34 PM
SCELL|Active;37|15:09-3:34 PM
SCELL|Active;36|15:14-3:34 PM
MVSLF|D4|15:18-3:35 PM
SCELL|Active;16|15:50-3:35 PM
MVSLF|D2|15:57-3:35 PM
AMODE|Identify|16:04-3:35 PM
