SESSN|28-20120410-1740;1,1|Start:4/10/2012-5:41 PM
INITZ|Hardware-Success|4/10/2012-5:41 PM
INITZ|Interface-Success|4/10/2012-5:41 PM
MEASR|1|4/10/2012-5:41 PM
TRAIN|Start|4/10/2012-6:10 PM
TRAIN|End|4/10/2012-7:04 PM
TRANS|1|Start:00:00-4/10/2012-7:05 PM
MEASR|2|4/10/2012-7:09 PM
TRANS|1|End:07:23-4/10/2012-7:11 PM
MISSN|1|Start:00:00-4/10/2012-7:19 PM
MEASR|3|4/10/2012-7:34 PM
MISSN|1|End:16:15-4/10/2012-7:35 PM
MISSN|2|Prepare:00:00-4/10/2012-7:46 PM
TRANS|2|Start:00:00-4/10/2012-7:50 PM
MEASR|4|4/10/2012-7:52 PM
REPRT|1|4/10/2012-7:53 PM
TRANS|2|End:11:53-4/10/2012-8:02 PM
MISSN|2|Start:00:00-4/10/2012-8:07 PM
MEASR|5|4/10/2012-8:27 PM
MISSN|2|Pause:21:11-4/10/2012-8:27 PM
MISSN|2|Resume:21:11-4/10/2012-8:32 PM
MEASR|6|4/10/2012-8:53 PM
MISSN|2|End:41:59-4/10/2012-8:53 PM
SESSN|28-20120410-1740,1,1|End:4/10/2012-9:06 PM
