SCELL|Active;46|02:41-7:29 PM
SCELL|Active;39|07:12-7:34 PM
AMODE|Move|07:14-7:34 PM
MVSLF|A4|07:16-7:34 PM
AMODE|Convoy|07:39-7:34 PM
CONVOY|A1~A4|07:50-7:35 PM
CICON|Convoy|09:08-7:36 PM
CICON|Self|09:10-7:36 PM
CICON|Ally|11:22-7:38 PM
CICON|Ally|11:27-7:38 PM
SCELL|Active;18|13:22-7:40 PM
SCELL|Active;18|14:06-7:41 PM
CONVOY|A4~B2|14:12-7:41 PM
AMODE|Move|14:39-7:41 PM
SCELL|Active;18|14:54-7:42 PM
MVSLF|B2|14:56-7:42 PM
CICON|Self|15:06-7:42 PM
CICON|Convoy|15:08-7:42 PM
CICON|Ally|15:12-7:42 PM
CICON|Ally|15:29-7:42 PM
CICON|Convoy|15:33-7:42 PM
AMODE|Convoy|15:38-7:42 PM
CONVOY|A4~B2|15:42-7:43 PM
