SESSN|26-20120406-1400;0,0|Start:4/6/2012-1:26 PM
INITZ|Hardware-Success|4/6/2012-1:26 PM
INITZ|Interface-Success|4/6/2012-1:26 PM
MEASR|1|4/6/2012-1:35 PM
TRAIN|Start|4/6/2012-3:04 PM
TRAIN|End|4/6/2012-3:04 PM
TRANS|1|Start:00:00-4/6/2012-3:04 PM
MEASR|2|4/6/2012-3:04 PM
MISSN|1|Start:00:00-4/6/2012-3:16 PM
TRANS|1|End:00:17-4/6/2012-3:16 PM
MEASR|3|4/6/2012-3:19 PM
MISSN|1|End:00:17-4/6/2012-3:31 PM
MISSN|2|Prepare:00:00-4/6/2012-3:41 PM
TRANS|2|Start:00:00-4/6/2012-3:45 PM
MEASR|4|4/6/2012-3:45 PM
REPRT|1|4/6/2012-3:46 PM
TRANS|2|End:07:50-4/6/2012-3:53 PM
MISSN|2|Start:00:00-4/6/2012-3:58 PM
MEASR|5|4/6/2012-3:59 PM
MISSN|2|Pause:21:13-4/6/2012-4:18 PM
MISSN|2|Resume:21:13-4/6/2012-4:24 PM
MEASR|6|4/6/2012-4:29 PM
MISSN|2|End:41:58-4/6/2012-4:44 PM
SESSN|26-20120406-1400,0,0|End:4/6/2012-4:55 PM
