SCELL|Active;89|03:09-8:06 PM
SCELL|Active;89|03:12-8:06 PM
SCELL|Active;89|03:13-8:06 PM
AMODE|Move|03:18-8:06 PM
MVSLF|A9|03:21-8:06 PM
SCELL|Active;67|08:00-8:11 PM
SCELL|Active;67|08:03-8:11 PM
SCELL|Active;67|08:03-8:11 PM
MVSLF|C7|08:07-8:11 PM
AMODE|Identify|08:16-8:11 PM
IDENT|A RPG Threat has been identified in map cell C7 at position 106, 334.|08:24-8:11 PM
IDENT|A Checkpoint Target has been identified in map cell C7 at position 102, 446.|08:55-8:12 PM
SCELL|Active;27|09:49-8:13 PM
AMODE|Move|09:50-8:13 PM
MVSLF|C3|09:51-8:13 PM
AMODE|Identify|10:45-8:14 PM
IDENT|A Tire Fire Target has been identified in map cell C3 at position 110, 233.|11:00-8:14 PM
IDENT|A Barrel Threat has been identified in map cell C3 at position 247, 229.|11:26-8:14 PM
SCELL|Active;5|14:20-8:17 PM
AMODE|Move|14:21-8:17 PM
MVSLF|E1|14:22-8:17 PM
SCELL|Active;15|14:54-8:18 PM
SCELL|Active;5|15:06-8:18 PM
AMODE|Identify|15:39-8:18 PM
IDENT|A Radio Tower Target has been identified in map cell E1 at position 304, 436.|15:50-8:19 PM
SCELL|Active;15|16:01-8:19 PM
AMODE|Move|16:02-8:19 PM
MVSLF|E2|16:03-8:19 PM
AMODE|Identify|16:06-8:19 PM
IDENT|A Civilian Target has been identified in map cell E2 at position 420, 150.|16:15-8:19 PM
IDENT|A AFV Threat has been identified in map cell E2 at position 394, 241.|17:00-8:20 PM
IDENT|A AFV Threat has been identified in map cell E2 at position 394, 241.|17:20-8:20 PM
SCELL|Active;75|20:14-8:23 PM
AMODE|Move|20:15-8:23 PM
MVSLF|E8|20:16-8:23 PM
AMODE|Identify|25:33-8:34 PM
IDENT|A RPG Threat has been identified in map cell E8 at position 89, 379.|25:49-8:35 PM
SCELL|Active;34|26:51-8:36 PM
AMODE|Move|26:52-8:36 PM
MVSLF|F4|26:53-8:36 PM
AMODE|Identify|27:03-8:36 PM
IDENT|A RPG Threat has been identified in map cell F4 at position 127, 411.|27:14-8:36 PM
IDENT|A Civilian Target has been identified in map cell F4 at position 367, 82.|27:30-8:36 PM
SCELL|Active;34|28:05-8:37 PM
SCELL|Active;34|28:06-8:37 PM
SCELL|Active;24|28:26-8:37 PM
AMODE|Move|28:29-8:37 PM
MVSLF|F3|28:30-8:37 PM
AMODE|Identify|28:35-8:37 PM
IDENT|A AFV Threat has been identified in map cell F3 at position 356, 178.|28:57-8:38 PM
SCELL|Active;73|29:33-8:38 PM
AMODE|Move|29:34-8:38 PM
MVSLF|G8|29:35-8:38 PM
AMODE|Identify|29:57-8:39 PM
IDENT|A AFV Threat has been identified in map cell G8 at position 52, 304.|30:05-8:39 PM
IDENT|A Civilian Target has been identified in map cell G8 at position 115, 291.|30:20-8:39 PM
IDENT|A Civilian Target has been identified in map cell G8 at position 345, 285.|30:36-8:39 PM
SCELL|Active;42|31:43-8:40 PM
AMODE|Move|31:44-8:41 PM
MVSLF|H5|31:45-8:41 PM
AMODE|Identify|31:53-8:41 PM
IDENT|A AFV Threat has been identified in map cell H5 at position 74, 233.|32:07-8:41 PM
IDENT|A AFV Threat has been identified in map cell H5 at position 356, 381.|32:15-8:41 PM
IDENT|A Checkpoint Target has been identified in map cell H5 at position 360, 440.|32:26-8:41 PM
IDENT|A Checkpoint Target has been identified in map cell H5 at position 57, 141.|32:35-8:41 PM
SCELL|Active;22|33:24-8:42 PM
AMODE|Move|33:26-8:42 PM
MVSLF|H3|33:26-8:42 PM
AMODE|Identify|33:33-8:42 PM
IDENT|A RPG Threat has been identified in map cell H3 at position 100, 357.|33:48-8:43 PM
IDENT|A Checkpoint Target has been identified in map cell H3 at position 431, 107.|34:05-8:43 PM
IDENT|A RPG Threat has been identified in map cell H3 at position 428, 279.|34:28-8:43 PM
IDENT|A Tent Target has been identified in map cell H3 at position 98, 411.|34:45-8:44 PM
IDENT|A Checkpoint Target has been identified in map cell H3 at position 431, 107.|34:57-8:44 PM
IDENT|A RPG Threat has been identified in map cell H3 at position 428, 279.|35:09-8:44 PM
SCELL|Active;1|37:26-8:46 PM
AMODE|Move|37:28-8:46 PM
MVSLF|I1|37:29-8:46 PM
SCELL|Active;21|38:19-8:47 PM
MVSLF|I3|38:24-8:47 PM
AMODE|Identify|38:35-8:47 PM
SCELL|Active;71|40:09-8:49 PM
AMODE|Move|40:10-8:49 PM
MVSLF|I8|40:14-8:49 PM
AMODE|Identify|40:28-8:49 PM
IDENT|A AFV Threat has been identified in map cell I8 at position 401, 290.|40:37-8:49 PM
