MTS Session,PR_IS1,PR_IS2,PR_IS3,PS_IS1,PS_IS2,PS_IS3,SR_IS1,SR_IS2,SR_IS3,SS_IS1,SS_IS2,SS_IS3
11-20120214-1730,0,0,0,0,0,0,0,0,0,0,0,0
12-20120215-1703,0,0,0,1,0,0,1,0,1,0,0,0
13-20120216-1722,0,0,0,0,0,0,0,0,0,1,0,0
14-20120221-1301,1,1,1,0,0,0,0,0,0,0,0,0
15-20120222-1340,0,0,0,0,0,0,0,0,0,0,0,0
16-20120222-1724,1,0,0,1,0,0,1,1,0,1,0,0
17-20120223-1321,0,0,0,0,0,0,1,0,0,0,0,0
18-20120223-1733,0,0,0,0,0,0,0,0,0,0,0,0
19-20120228-1324,0,0,0,0,0,0,0,0,0,1,0,1
20-20120229-1339,0,0,0,0,0,1,0,0,0,0,0,0
21-20120301-1330,0,0,0,1,0,1,1,0,0,1,0,1
22-20120301-1800,0,0,0,0,0,0,0,0,0,0,0,0
23-20120302-1335,0,0,0,0,0,0,0,0,0,1,1,1
24-20120402-1736,0,0,0,0,0,0,0,0,0,0,0,1
25-20120403-1800,1,1,1,1,0,0,0,1,0,0,0,0
26-20120406-1400,0,0,0,0,0,0,0,0,0,1,0,0
27-20120406-1707,0,0,0,1,0,0,0,0,0,0,0,0
28-20120410-1740,0,0,1,1,1,1,0,0,0,0,0,0
