CICON|Ally|01:01-3:17 PM
AMODE|Identify|01:12-3:18 PM
AMODE|Move|01:14-3:18 PM
AMODE|Convoy|01:16-3:18 PM
CICON|Convoy|01:21-3:18 PM
CICON|Self|01:23-3:18 PM
CICON|Ally|01:24-3:18 PM
AMODE|Identify|02:04-3:18 PM
IDENT|A Van Threat has been identified in map cell A1 at position 216, 131.|02:53-3:19 PM
IDDEL|A Van threat has been deleted in map cell A1 at position 216,131.|03:06-3:19 PM
SCELL|Active;17|03:20-3:20 PM
SCELL|Active;17|03:27-3:20 PM
SCELL|Active;17|03:27-3:20 PM
SCELL|Active;17|03:28-3:20 PM
AMODE|Move|03:29-3:20 PM
AMODE|Identify|03:37-3:20 PM
SCELL|Active;17|03:47-3:20 PM
SCELL|Active;17|03:47-3:20 PM
SCELL|Active;17|03:47-3:20 PM
SCELL|Active;17|03:47-3:20 PM
SCELL|Active;17|03:47-3:20 PM
SCELL|Active;17|03:48-3:20 PM
SCELL|Active;17|03:48-3:20 PM
AMODE|Move|03:59-3:20 PM
MVSLF|C2|04:03-3:20 PM
AMODE|Identify|04:13-3:21 PM
IDENT|A Van Threat has been identified in map cell C2 at position 216, 131.|04:21-3:21 PM
AMODE|Move|04:31-3:21 PM
SCELL|Active;18|04:47-3:21 PM
MVSLF|B2|04:50-3:21 PM
AMODE|Identify|04:55-3:21 PM
AMODE|Move|05:09-3:22 PM
SCELL|Active;5|05:13-3:22 PM
MVSLF|E1|05:16-3:22 PM
AMODE|Identify|05:22-3:22 PM
IDENT|A Van Threat has been identified in map cell E1 at position 407, 271.|05:38-3:22 PM
AMODE|Move|05:48-3:22 PM
SCELL|Active;39|05:53-3:22 PM
MVSLF|A4|05:57-3:22 PM
AMODE|Identify|06:07-3:22 PM
IDENT|A RPG Threat has been identified in map cell A4 at position 256, 376.|06:25-3:23 PM
AMODE|Move|06:31-3:23 PM
SCELL|Active;16|06:35-3:23 PM
MVSLF|D2|06:38-3:23 PM
AMODE|Identify|06:47-3:23 PM
IDENT|A Checkpoint Target has been identified in map cell D2 at position 174, 147.|07:01-3:23 PM
AMODE|Move|07:07-3:23 PM
SCELL|Active;36|07:14-3:24 PM
MVSLF|D4|07:18-3:24 PM
AMODE|Identify|07:23-3:24 PM
IDENT|A RPG Threat has been identified in map cell D4 at position 179, 332.|07:55-3:24 PM
AMODE|Move|07:56-3:24 PM
SCELL|Active;17|08:09-3:25 PM
MVSLF|C2|08:12-3:25 PM
SCELL|Active;38|08:37-3:25 PM
SCELL|Active;35|08:42-3:25 PM
MVSLF|E4|08:47-3:25 PM
AMODE|Identify|08:56-3:25 PM
IDENT|A Radio Tower Target has been identified in map cell E4 at position 279, 123.|09:11-3:26 PM
SCELL|Active;5|09:23-3:26 PM
AMODE|Move|09:30-3:26 PM
MVSLF|E1|09:31-3:26 PM
SCELL|Active;39|09:44-3:26 PM
SCELL|Active;7|11:13-3:28 PM
MVSLF|C1|11:15-3:28 PM
AMODE|Identify|11:27-3:28 PM
IDENT|A AFV Threat has been identified in map cell C1 at position 138, 402.|11:40-3:28 PM
SCELL|Active;9|11:49-3:28 PM
SCELL|Active;19|11:51-3:28 PM
SCELL|Active;9|11:52-3:28 PM
CICON|Threat|11:54-3:28 PM
SCELL|Active;36|12:31-3:29 PM
SCELL|Active;16|12:34-3:29 PM
SCELL|Active;6|12:34-3:29 PM
SCELL|Active;7|12:35-3:29 PM
SCELL|Active;9|12:38-3:29 PM
SCELL|Active;8|12:38-3:29 PM
SCELL|Active;7|12:39-3:29 PM
SCELL|Active;17|12:40-3:29 PM
SCELL|Active;9|12:41-3:29 PM
SCELL|Active;37|12:43-3:29 PM
SCELL|Active;7|13:29-3:30 PM
AMODE|Move|13:32-3:30 PM
SCELL|Active;7|14:20-3:31 PM
SCELL|Active;7|14:20-3:31 PM
SCELL|Active;5|14:25-3:31 PM
MVSLF|E1|14:27-3:31 PM
SCELL|Active;35|15:47-3:32 PM
